# The choice is made based on a weighted random, but the first factor that evaluates to >= 100 will be automatically chosen
# Two passes are done when choosing properties; first from lowest to highest, then from highest to lowest. Be aware of this if you reference other properties, as the old properties will still be active in the first pass
# hide_layers is interpreted from bottom to top. Hidden layers won't hide other layers, but if a lower layer hides a higher layer, the higher layer won't be rechecked, so it might still be hiding other layers despite being hidden itself

# p0 background
0 = {
	0 = { # Ba Sing Se
		factor = 10
		modifier = {
			factor = 0
			NOT = { culture = ba_sing_se }
		}
	}

	1 = { # Siege
		factor = 100
		modifier = {
			factor = 0
			OR = {
				AND = {
					is_alive = yes
					in_command = no
				}
				AND = {
					is_alive = no
					NOT = { death_reason = death_battle }
				}
			}
		}
	}

	2 = { # Air Nomads - Journey
		factor = 10
		modifier = {
			factor = 0
			NOT = { culture_group = air_nomad_culture }
		}
	}

	3 = { # Air Nomads - Temple
		factor = 10
		modifier = {
			factor = 0
			NOT = { culture_group = air_nomad_culture }
		}
	}

	4 = { # Ba Sing Se - 2
		factor = 10
		modifier = {
			factor = 0
			NOT = { culture = ba_sing_se }
		}
		modifier = {
			factor = 0
			is_patrician = yes
		}
	}
	
	5 = { #  Earth Kingdom Village - South
		factor = 20
		modifier = {
			factor = 0
			OR = {
				NOT = { culture_group = earth_kingdom_culture }
				culture = ba_sing_se
				culture = sandbender
			}
		}
	}
	
	6 = { # Northern Water Tribe
		factor = 20
		modifier = {
			factor = 0
			NOR = {
				culture = northern_water
				culture = northern_water_urban
			}
		}
	}
	
	7 = { # Desert Market
		factor = 10
		modifier = {
			factor = 0
			NOT = { culture = sandbender }
		}
	}
	
	8 = { # Fire Nation Palace
		factor = 10
		modifier = {
			factor = 0
			OR = {
				NOT = { culture_group = fire_nation_culture }
				culture = sun_warrior 
			}
		}
		modifier = {
			factor = 0
			OR = {
				NOT = { real_tier = king }
				NOT = { real_tier = emperor }
			}
		}
	}
	
	9 = { # Southern Water Tribe
		factor = 20
		modifier = {
			factor = 0
			NOT = { culture = southern_water }
		}
	}
	
	10 = { # Si Wong Desert
		factor = 10
		modifier = {
			factor = 0
			NOT = { culture = sandbender }
		}
	}
	
	11 = { # Fire Nation Village
		factor = 5
		modifier = {
			factor = 0
			OR = {
				NOT = { culture_group = fire_nation_culture }
				culture = sun_warrior 
			}
		}
		modifier = {
			factor = 0
			is_landed = yes
		}
	}
	
	12 = { # Ocean w ships
		factor = 1
		modifier = {
			factor = 0
			at_sea = no
		}
		modifier = {
			factor = 0
			culture = sandbender
		}
	}
	
	13 = { # Fire Nation Palace
		factor = 5
		modifier = {
			factor = 0
			OR = {
				NOT = { culture_group = fire_nation_culture }
				culture = sun_warrior 
			}
		}
	}
	
	14 = { # Great Swamp
		factor = 20
		modifier = {
			factor = 0
			NOT = { culture = foggy_swamp }
		}
	}
	
	15 = { # Earth Kingdom Village
		factor = 5
		modifier = {
			factor = 0
			OR = {
				culture_group = water_tribe_culture
				culture_group = fire_nation_culture
				culture_group = air_nomad_culture
				culture = sandbender
				culture = ba_sing_se
			}
		}
		modifier = {
			factor = 0
			is_landed = yes
		}
	}

	16 = { # Earth Kingdom Port
		factor = 1
		modifier = {
			factor = 0
			OR = {
				NOT = { culture_group = earth_kingdom_culture }
				culture = ba_sing_se
				culture = sandbender
			}
		}
	}

	17 = { # Earth Kingdom Hospital
		factor = 5
		modifier = {
			factor = 0
			OR = {
				culture_group = water_tribe_culture
				culture_group = fire_nation_culture
				culture_group = air_nomad_culture
				culture = foggy_swamp
				culture = sandbender
			}
		}
	}

	18 = { # Wilderness 1
		factor = 5
		modifier = {
			factor = 0
			OR = {
				culture_group = water_tribe_culture
				culture_group = air_nomad_culture
				culture = sandbender
				culture = sun_warrior
			}
		}
	}

	19 = { # Wilderness 2
		factor = 1
	}

	20 = { # Sun Warrior Temple
		factor = 20
		modifier = {
			factor = 0
			NOT = { culture = sun_warrior }
		}
	}
	
	21 = { # Background
		factor = 4
		modifier = {
			factor = 0
			is_priest = no
		}
	}
}

# p1 hair  --- WARNING! Property 1 MUST be Hair, otherwise the hair hiding helmets wont work ---
1 = {
	0 = { # Completely bald
		factor = 1
	}

	1 = { # Black Adder
		factor = 1
	}
	
	2 = { # Page
		factor = 1
	}

	3 = { # Synth
		factor = 1
	}

	4 = { # Long Straight
		factor = 1
	}

	5 = { # Long Curly
		factor = 1
	}

	6 = {  # Tonsure
		factor = 1
	}
	
	7 = {  # Short
		factor = 1
	}
	
	8 = { # Short Curly
		factor = 1
	}
	
	9 = {  # Short Uncouth
		factor = 1
	}
	
	10 = {  # Long Uncouth
		factor = 1
	}
	
	11 = { # Balding
		factor = 1
	}
	
	12 = { # Marine
		factor = 1
	}
	
	13 = { # Mohawk
		factor = 1
	}
	
	14 = { # Mohawk
		factor = 1
	}
	
	15 = { # Mohawk
		factor = 1
	}
}

# p2 base
2 = {
}

# p3 clothes
3 = {
	
	0 = { # Royal clothes 1
		factor = 2
		modifier = {
			factor = 0
			OR = {
				trait = peasant_leader
				trait = heresiarch
			}
		}
		modifier = {
			factor = 0
			NOT = { real_tier = king }
			NOT = { real_tier = emperor }
			NOT = { spouse = { real_tier = king } }
			NOT = { spouse = { real_tier = emperor } }
			NOT = { has_minor_title = title_prince }
		}
		modifier = {
			factor = 0
			is_tribal = yes
			NOR = {
				graphical_culture = watergfx
				graphical_culture = sandbendergfx
			}
		}
	}
	
	1 = { # Royal clothes 2
		factor = 1
		modifier = {
			factor = 0
			NOT = { has_job_title  = job_marshal }
			NOT = { martial = 12 }
			NOT = { graphical_culture = airgfx }
		}
		modifier = {
			factor = 0
			real_tier = emperor
		}
		modifier = {
			factor = 0
			is_tribal = yes
			NOR = {
				graphical_culture = watergfx
				graphical_culture = sandbendergfx
			}
		}
	}
	
	2 = { # Royal clothes 3
		factor = 1
		modifier = {
			factor = 0
			OR = {
				trait = peasant_leader
				trait = heresiarch
			}
		}
		modifier = {
			factor = 0
			NOT = { real_tier = duke }
			NOT = { real_tier = king }
			NOT = { real_tier = emperor }
			NOT = { spouse = { real_tier = duke } }
			NOT = { spouse = { real_tier = king } }
			NOT = { spouse = { real_tier = emperor } }
			NOT = { has_minor_title = title_prince }
		}
		modifier = {
			factor = 0
			is_tribal = yes
			NOR = {
				graphical_culture = watergfx
				graphical_culture = sandbendergfx
			}
		}
	}
	
	3 = { # Noble clothes 1
		factor = 1
		modifier = {
			factor = 0
			OR = {
				trait = peasant_leader
				trait = heresiarch
			}
		}
		modifier = {
			factor = 0
			NOT = { real_tier = duke }
			NOT = { real_tier = count }
			NOT = { real_tier = baron }
			NOT = { spouse = { real_tier = duke } }
			NOT = { spouse = { real_tier = count } }
			NOT = { spouse = { real_tier = baron } }
			NOT = { has_minor_title = title_prince }
		}
		modifier = {
			factor = 0
			is_tribal = yes
			NOR = {
				graphical_culture = watergfx
				graphical_culture = sandbendergfx
			}
		}
		modifier = {
			factor = 0
			graphical_culture = airgfx
			NOT = { religion = nomadic_nihilism }
		}
	}
	
	4 = { # Noble clothes 2
		factor = 1
		modifier = {
			factor = 0
			OR = {
				trait = peasant_leader
				trait = heresiarch
			}
		}
		modifier = {
			factor = 0
			NOT = { real_tier = duke }
			NOT = { real_tier = count }
			NOT = { real_tier = baron }
			NOT = { spouse = { real_tier = duke } }
			NOT = { spouse = { real_tier = count } }
			NOT = { spouse = { real_tier = baron } }
			NOT = { has_minor_title = title_prince }
		}
		modifier = {
			factor = 0
			is_tribal = yes
			NOR = {
				graphical_culture = watergfx
				graphical_culture = sandbendergfx
			}
		}
	}
	
	5 = { # Noble clothes 3
		factor = 1
		modifier = {
			factor = 0
			OR = {
				trait = peasant_leader
				trait = heresiarch
			}
		}
		modifier = {
			factor = 0
			NOT = { real_tier = duke }
			NOT = { real_tier = count }
			NOT = { real_tier = baron }
			NOT = { spouse = { real_tier = duke } }
			NOT = { spouse = { real_tier = count } }
			NOT = { spouse = { real_tier = baron } }
			NOT = { has_minor_title = title_prince }
		}
		modifier = {
			factor = 0
			is_tribal = yes
			NOR = {
				graphical_culture = watergfx
				graphical_culture = sandbendergfx
			}
		}
	}
	
	6 = { # Modest clothes 1
		factor = 1
		modifier = {
			factor = 0
			NOT = { trait = peasant_leader }
			NOT = { trait = heresiarch }
			OR = {
				is_ruler = yes
				has_minor_title = title_prince
				spouse = { real_tier = emperor }
				spouse = { real_tier = king }
				spouse = { real_tier = duke }
			}
		}
		modifier = {
			factor = 10
			is_ruler = yes
			is_theocracy = yes
		}
		modifier = {
			factor = 0
			is_tribal = yes
			NOR = {
				graphical_culture = watergfx
				graphical_culture = sandbendergfx
			}
		}
	}
	7 = { # Modest clothes 2
		factor = 1
		modifier = {
			factor = 0
			NOT = { trait = peasant_leader }
			NOT = { trait = heresiarch }
			OR = {
				is_ruler = yes
				has_minor_title = title_prince
				spouse = { real_tier = emperor }
				spouse = { real_tier = king }
				spouse = { real_tier = duke }
			}
		}
		modifier = {
			factor = 0
			is_tribal = yes
			NOR = {
				graphical_culture = watergfx
				graphical_culture = sandbendergfx
			}
		}
	}
	
	8 = { # Modest clothes 3
		factor = 1
		modifier = {
			factor = 0
			NOT = { trait = peasant_leader }
			NOT = { trait = heresiarch }
			OR = {
				is_ruler = yes
				has_minor_title = title_prince
				spouse = { real_tier = emperor }
				spouse = { real_tier = king }
				spouse = { real_tier = duke }
			}
		}
		modifier = {
			factor = 0
			is_tribal = yes
			NOR = {
				graphical_culture = watergfx
				graphical_culture = sandbendergfx
			}
		}
	}
	9 = { # Barbarian Clothes
		factor = 3
		modifier = {
			factor = 0
			is_tribal = no
		}
	}
	
	# Barbarian Clothes
	10 = {
		factor = 3
		modifier = {
			factor = 0
			is_tribal = no
		}
	}
	
	# Fire Nation Armor
	11 = {
		factor = 10
		modifier = {
			factor = 0
			NOT = { has_job_title  = job_marshal }
			NOT = { martial = 12 }
		}
		modifier = {
			factor = 0
			NOT = { graphical_culture = firenationgfx }
		}
		modifier = {
			factor = 0
			OR = {
				is_tribal = yes
				real_tier = king
				real_tier = emperor
			}
		}
	}
}

# p4 beard
4 = {
	0 = {
		factor = 1
	}
	1 = {
		factor = 1
	}
	2 = {
		factor = 1
	}
	3 = {
		factor = 1
	}
	4 = {
		factor = 1
	}
	5 = {
		factor = 1
	}
	6 = {
		factor = 1
	}
	7 = {
		factor = 1
	}
	8 = {
		factor = 1
	}
	9 = {
		factor = 1
	}
	10 = {
		factor = 1
	}
	11 = {
		factor = 1
	}
	12 = {
		factor = 1
	}
}

# p5 headgear
5 = {
	# Imperial crown/Chaliph turban
	0 = {
		factor = 100
		modifier = {
			factor = 0
			NOT = { real_tier = emperor }
			NOT = { spouse = { real_tier = emperor } }
		}
		modifier = {
			factor = 0
			is_feudal = no
		}
		modifier = {
			factor = 0
			OR = {
				trait = peasant_leader
				trait = heresiarch
			}
		}
	}
	
	# Royal crown/turban 1
	1 = {
		factor = 1
		modifier = {
			factor = 0
			NOT = { real_tier = king }
			NOT = { spouse = { real_tier = king } }
			NOT = { graphical_culture = firenationgfx }
		}
		modifier = {
			factor = 0
			is_feudal = no
		}
		modifier = {
			factor = 0
			graphical_culture = firenationgfx
			OR = {
				NOT = { martial = 12 }
				is_landed = yes
			}
		}
		modifier = {
			factor = 0
			OR = {
				trait = peasant_leader
				trait = heresiarch
			}
		}
	}

	# Royal crown/turban 2
	2 = {
		factor = 1
		modifier = {
			factor = 0
			NOT = { real_tier = king }
			NOT = { spouse = { real_tier = king } }
		}
		modifier = {
			factor = 0
			is_feudal = no
		}
		modifier = {
			factor = 0
			OR = {
				trait = peasant_leader
				trait = heresiarch
			}
		}
	}

	# Royal crown/turban 3
	3 = {
		factor = 1
		modifier = {
			factor = 0
			NOT = { real_tier = king }
			NOT = { spouse = { real_tier = king } }
		}
		modifier = {
			factor = 0
			is_feudal = no
		}
		modifier = {
			factor = 0
			OR = {
				trait = peasant_leader
				trait = heresiarch
			}
		}
	}

	# Simple golden band/turban
	4 = {
		factor = 1
		modifier = {
			factor = 0
			is_feudal = yes
			NOT = { real_tier = duke }
			NOT = { spouse = { real_tier = duke } }
			NOT = { has_minor_title = title_prince }
		}
		modifier = {
			factor = 0
			is_republic = yes
			NOT = { real_tier = duke }
			NOT = { real_tier = king }
			NOT = { real_tier = emperor }
			NOT = { has_minor_title = title_prince }
			NOT = { spouse = { real_tier = emperor } }
			NOT = { spouse = { real_tier = king } }
			NOT = { spouse = { real_tier = duke } }
		}
		modifier = {
			factor = 0
			is_feudal = yes
			real_tier = king
		}
		modifier = {
			factor = 0
			OR = {
				trait = peasant_leader
				trait = heresiarch
			}
		}
	}

	# Common headgear 1 - hood
	5 = {
		factor = 1
		modifier = {
			factor = 0
			NOT = { trait = peasant_leader }
			NOT = { trait = heresiarch }
			OR = {
				is_ruler = yes
				has_minor_title = title_prince
				spouse = { real_tier = emperor }
				spouse = { real_tier = king }
				spouse = { real_tier = duke }
			}
		}
		modifier = {
			factor = 10
			is_ruler = yes
			is_theocracy = yes
			religion_group = pagan_group
		}
	}
	
	# Common headgear 2 - hood
	6 = {
		factor = 1
		modifier = {
			factor = 0
			NOT = { trait = peasant_leader }
			NOT = { trait = heresiarch }
			OR = {
				is_ruler = yes
				has_minor_title = title_prince
				spouse = { real_tier = emperor }
				spouse = { real_tier = king }
				spouse = { real_tier = duke }
			}
		}
	}

	# Common headgear 3 - Red hat
	7 = {
		factor = 1
		modifier = {
			factor = 0
			NOT = { trait = peasant_leader }
			NOT = { trait = heresiarch }
			OR = {
				NOT = { religion = orthodox }
				is_ruler = yes
				has_minor_title = title_prince
				spouse = { real_tier = emperor }
				spouse = { real_tier = king }
				spouse = { real_tier = duke }
			}
		}
	}
	
	# Common headgear 4 - hood
	8 = {
		factor = 1
		modifier = {
			factor = 0
			NOT = { trait = peasant_leader }
			NOT = { trait = heresiarch }
			OR = {
				is_ruler = yes
				has_minor_title = title_prince
				spouse = { real_tier = emperor }
				spouse = { real_tier = king }
				spouse = { real_tier = duke }
			}
		}
	}

	# Shady headgear
	9 = {
		factor = 3
		modifier = {
			factor = 0
			OR = {
				real_tier = king
				real_tier = emperor
				AND = {
					real_tier = duke
					any_demesne_title = {
						real_tier = baron
					}
				}
				spouse = { real_tier = king }
				spouse = { real_tier = emperor }
			}
		}
		modifier = {
			factor = 0
			NOT = { has_job_title = job_spymaster }
			OR = {
				real_tier = duke
				NOT = { intrigue = 10 }
			}
		}
	}

	# Martial headgear
	10 = {
		factor = 100
		modifier = {
			factor = 0
			NOT = { has_job_title  = job_marshal }
			NOT = { martial = 12 }
		}
		modifier = {
			factor = 0
			OR = {
				trait = avatar
				trait = fullyrealisedavatar
			}
		}
		modifier = {
			factor = 0
			OR = {
				AND = {
					is_female = yes
					NOT = { has_minor_title = title_commander }
				}
				real_tier = king
				real_tier = emperor
				AND = {
					real_tier = duke
					any_demesne_title = {
						real_tier = baron
					}
					NOT = {
						primary_title = {
							OR = {
								mercenary = yes
							}
						}
					}
				}
				AND = {
					OR = {
						AND = {
							is_ruler = yes
							is_theocracy = yes
						}
						has_job_title = job_spiritual
					}
				}
			}
		}
	}

	# Blank
	11 = {
		factor = 3
		modifier = {
			factor = 20000
			trait = shieldmaiden
			NOT = { has_minor_title = title_commander }
		}
		modifier = {
			factor = 0
			OR = {
				real_tier = emperor
				real_tier = king
				real_tier = duke
				has_minor_title = title_prince
				spouse = { real_tier = emperor }
				spouse = { real_tier = king }
				spouse = { real_tier = duke }
			}
		}
	}
}

# p6 imprisoned
6 = {
	0 = { # blank
		factor = 100
		modifier = {
			factor = 0
			prisoner = yes
		}
	}

	1 = { # prisoner
		factor = 100
		modifier = {
			factor = 0
			prisoner = no
		}
	}
}

# p7 scars
7 = {
	0 = { # blank
		factor = 100
		modifier = {
			factor = 0
			OR = {
				trait = maimed
				trait = wounded
				trait = scarred
				#trait = disfigured
				#trait = one_eyed
			}
		}
   	}

	1 = { # scar 1
		factor = 1
		modifier = {
			factor = 0
			NOT = { 
				OR = {
					trait = maimed
					trait = wounded
					trait = scarred
					#trait = disfigured
					#trait = one_eyed
				}
			}
		}
   	}

	2 = { # scar 2
		factor = 1
		modifier = {
			factor = 0
			NOT = { 
				OR = {
					trait = maimed
					trait = wounded
					trait = scarred
					#trait = disfigured
					#trait = one_eyed
				}
			}
		}
   	}

	3 = { # scar 3
		factor = 1
		modifier = {
			factor = 0
			NOT = { 
				OR = {
					trait = maimed
					trait = wounded
					trait = scarred
					#trait = disfigured
					#trait = one_eyed
				}
			}
		}
   	}

	4 = { # scar 4
		factor = 1
		modifier = {
			factor = 0
			NOT = { 
				OR = {
					trait = maimed
					trait = wounded
					trait = scarred
					#trait = disfigured
					#trait = one_eyed
				}
			}
		}
   	}
}

# p8 red dots
8 = {
	0 = { # blank
		factor = 100
		modifier = {
			factor = 0
			OR = {
				trait = has_measles
				trait = has_small_pox
			}
		}
 	}

	1 = { # red dots
		factor = 100
		modifier = {
			factor = 0
			OR = {
				NOT = {
					trait = has_measles
					trait = has_small_pox
				}
			}
		}
  	}
}

# p9 boils
9 = {

	0 = { # blank
		factor = 100
		modifier = {
			factor = 0
			OR = {
				trait = has_bubonic_plague
			}
		}
 	}

	1 = { # boils
		factor = 100
		modifier = {
			factor = 0
			OR = {
				NOT = {
					trait = has_bubonic_plague
				}
			}
		}
 	}
 	
}

# p10 blinded
10 = {
	0 = {
		factor = 100
		modifier = {
			factor = 0
			trait = blinded
		}
	}
	
	1 =  {
		factor = 100
		modifier = {
			factor = 0
			NOT = {
				trait = blinded
			}
		}
	}
}

# p11 player
11 = {
	0 = { # blank
		factor = 100
		modifier = {
			factor = 0
			AND = {
				ai = no
				multiplayer = yes
			}
		}
	}

	1 = { # player
		factor = 100
		modifier = {
			factor = 0
			OR = {
				ai = yes
				multiplayer = no
			}
		}
	}
}

# p12 mask for the disfigured
12 = {
	0 = { # blank
		factor = 100
		modifier = {
			factor = 0
			OR = { 
				trait = disfigured 
				has_character_modifier = attending_masquerade
				has_character_modifier = forced_mask
			}
		}
	}

	1 = { # mask 1 bone
		factor = 1
		modifier = {
			factor = 0
			NOR = { 
				trait = disfigured 
				has_character_modifier = attending_masquerade
				has_character_modifier = forced_mask
			}
		}
	}
}

# p13 eyepatch for one_eyed
13 = {
	0 = { # blank
		factor = 100
		modifier = {
			factor = 0
			trait = one_eyed
			NOT = { has_character_modifier = glass_eye }
		}
	}

	1 = { # eyepatch 1
		factor = 1
		modifier = {
			factor = 0
			OR = {
				NOT = { trait = one_eyed }
				has_character_modifier = glass_eye
			}
		}
	}
}