namespace = NOMAD

# On-action event: A child is born
character_event = {
	id = NOMAD.1
	desc = NOMADEVTDESC1
	picture = GFX_evt_birth
	is_triggered_only = yes
	
	trigger = {
		culture_group = air_nomad_culture
		NOT = { trait = directdescendantavatar }
		NOT = { trait = descendantavatar }
	}

	option = {
		name = "EVTOPTANOMAD.1"
		remove_trait = bastard
		add_trait = airinitiate
		mother = {
			character_event = { id = NOMAD.6 } # The father's reaction
		}
		father = {
			character_event = { id = NOMAD.7 } # The mother's reaction
		}
	}
}

# Father reacts - Female 
character_event = {
	id = NOMAD.2
	desc = NOMADEVTDESC2
	picture = GFX_evt_birth
	is_triggered_only = yes

	option = {
		name = "EVTOPTANOMAD.2"	
	}
}

# Mother reacts - Female 
character_event = {
	id = NOMAD.3
	desc = NOMADEVTDESC3
	picture = GFX_evt_birth
	is_triggered_only = yes

	option = {
		name = "EVTOPTANOMAD.3"	
		if = {
			limit = {
				is_ruler = yes
			}
			FROMFROM = { move_character = ROOT }
		}
		if = {
			limit = {
				is_ruler = no
			}
			liege = {
				FROMFROM = { move_character = THIS }
			}
		}
		FROMFROM = { dynasty = ROOT }
	}
}

# Father reacts - Male 
character_event = {
	id = NOMAD.4
	desc = NOMADEVTDESC4
	picture = GFX_evt_birth
	is_triggered_only = yes

	option = {
		name = "EVTOPTANOMAD.4"	
		if = {
			limit = {
				is_ruler = yes
			}
			FROMFROM = { move_character = ROOT }
		}
		if = {
			limit = {
				is_ruler = no
			}
			liege = {
				FROMFROM = { move_character = THIS }
			}
		}
		FROMFROM = { dynasty = ROOT }
	}
}

# Mother reacts - Male 
character_event = {
	id = NOMAD.5
	desc = NOMADEVTDESC5
	picture = GFX_evt_birth
	is_triggered_only = yes

	option = {
		name = "EVTOPTANOMAD.5"	
	}
}

# Ping Mother
character_event = {
	id = NOMAD.6
	hide_window = yes
	is_triggered_only = yes
	
	immediate = {
		FROM = {
			if = {
				limit = {
					is_female = yes
				}
				father = {
					character_event = { id = NOMAD.2 days = 1 } # The father's reaction
				}
			}
			if = {
				limit = {
					is_female = no
				}
				father = {
					character_event = { id = NOMAD.4 days = 1 } # The father's reaction
				}
			}
		}
	}
}

# Ping Father
character_event = {
	id = NOMAD.7
	hide_window = yes
	is_triggered_only = yes
	
	immediate = {
		FROM = {
			if = {
				limit = {
					is_female = yes
				}
				mother = {
					character_event = { id = NOMAD.3 days = 1 } # The mother's reaction
				}
			}
			if = {
				limit = {
					is_female = no
				}
				mother = {
					character_event = { id = NOMAD.5 days = 1 } # The mother's reaction
				}
			}
		}
	}
}

# On-action event: Right Home
character_event = {
	id = NOMAD.8
	hide_window = yes
	is_triggered_only = yes
	culture_group = air_nomad_culture
	ai = yes
	
	trigger = {
		OR = {
			AND = {
				is_female = yes
				culture = northern_air_nomad
			}
			AND = {
				is_female = yes
				culture = southern_air_nomad
			}
			AND = {
				is_female = no
				culture = eastern_air_nomad
			}
			AND = {
				is_female = no
				culture = western_air_nomad
			}
			AND = {
				is_female = yes
				liege = {
					is_female = no
				}
			}
			AND = {
				is_female = no
				liege = {
					is_female = yes
				}
			}
		}
	}

	option = {
		name = OK
		if = {
			limit = {
				is_unimportant_trigger = yes
			}
			death = { death_reason = death_missing }
			break = yes
		}
		if = {
			limit = {
				is_female = yes
			}
			random_list = {
				50 = {
					any_playable_ruler = {
						limit = {
							culture = eastern_air_nomad
						}
						ROOT = { 
							move_character = THIS 
							culture = eastern_air_nomad
						}
					}
				}
				50 = {
					any_playable_ruler = {
						limit = {
							culture = western_air_nomad
						}
						ROOT = { 
							move_character = THIS 
							culture = western_air_nomad
						}
					}
				}
			}
		}
		if = {
			limit = {
				is_female = no
			}
			random_list = {
				50 = {
					any_playable_ruler = {
						limit = {
							culture = northern_air_nomad
						}
						ROOT = { 
							move_character = THIS 
							culture = northern_air_nomad
						}
					}
				}
				50 = {
					any_playable_ruler = {
						limit = {
							culture = southern_air_nomad
						}
						ROOT = { 
							move_character = THIS 
							culture = southern_air_nomad
						}
					}
				}
			}
		}
	}
}

# On-action event: Pregnancy starts showing
character_event = {
	id = NOMAD.10
	desc = NOMADEVTDESC10
	picture = GFX_evt_pregnancy
	border = GFX_event_normal_frame_religion
	
	is_triggered_only = yes
	
	trigger = {
		culture_group = air_nomad_culture
		NOT = { trait = pregnant }
		is_female = yes
	}
	
	option = {
		name = OK
		add_trait = pregnant
		prestige = 10
		
		if = {
			limit = {
				father_of_unborn = {
					is_alive = yes
				}
			}
			
			father_of_unborn = { character_event = { id = NOMAD.11 tooltip = EVTTOOLTIP403 } }
		}
	}
}

character_event = {
	id = NOMAD.11
	picture = GFX_evt_pregnancy
	border = GFX_event_normal_frame_religion
	
	is_triggered_only = yes 
	
	desc = NOMADEVTDESC11

	option = {
		name = OK
		prestige = 5
	}
}

# On-action event: Courtiers
character_event = {
	id = NOMAD.12
	hide_window = yes
	is_triggered_only = yes
	culture_group = air_nomad_culture
	only_rulers = yes
	ai = yes
	is_female = yes
	
	trigger = {
		is_playable = yes
		higher_tier_than = BARON
		OR = {
			NOR = {
				any_courtier_or_vassal = {
					has_job_title = job_chancellor
					liege = {
						character = ROOT
					}
				}
			}
			NOR = {
				any_courtier_or_vassal = {
					has_job_title = job_marshal
					liege = {
						character = ROOT
					}
				}
			}
			NOR = {
				any_courtier_or_vassal = {
					has_job_title = job_treasurer
					liege = {
						character = ROOT
					}
				}
			}
			NOR = {
				any_courtier_or_vassal = {
					has_job_title = job_spymaster
					liege = {
						character = ROOT
					}
				}
			}
			NOR = {
				any_courtier_or_vassal = {
					has_job_title = job_spiritual
					liege = {
						character = ROOT
					}
				}
			}
			NOR = {
				any_courtier_or_vassal = {
					has_minor_title = title_court_physician
					liege = {
						character = ROOT
					}
				}
			}
		}
	}

	option = {
		name = OK
		if = { # Create Chancellor
			limit = {
				NOR = {
					any_courtier_or_vassal = {
						has_job_title = job_chancellor
						liege = {
							character = ROOT
						}
					}
				}
			}
			create_character = {
				female = yes
				age = 21
				attributes = { 
					martial = 2
					diplomacy = 10
					stewardship = 2
					intrigue = 2
					learning = 2 
				}
				dynasty = random
				religion = ROOT
				culture = ROOT
				trait = charismatic_negotiator
				trait = airnomad
				trait = airbender
				trait = incompetent_bender
				random_traits = yes
			}
			new_character = {
				give_job_title = job_chancellor 
			}
		}
		if = { # Create Marshal
			limit = {
				NOR = {
					any_courtier_or_vassal = {
						has_job_title = job_marshal
						liege = {
							character = ROOT
						}
					}
				}
			}
			create_character = {
				female = yes
				age = 21
				attributes = { 
					martial = 11
					diplomacy = 3
					stewardship = 2
					intrigue = 2
					learning = 2 
				}
				dynasty = random
				religion = ROOT
				culture = ROOT
				trait = skilled_tactician
				trait = airnomad
				trait = airbender
				trait = master_bender
				random_traits = yes
			}
			new_character = {
				give_job_title = job_marshal 
			}
		}
		if = { # Create Steward
			limit = {
				NOR = {
					any_courtier_or_vassal = {
						has_job_title = job_treasurer
						liege = {
							character = ROOT
						}
					}
				}
			}
			create_character = {
				female = yes
				age = 21
				attributes = { 
					martial = 2
					diplomacy = 4
					stewardship = 9
					intrigue = 2
					learning = 2 
				}
				dynasty = random
				religion = ROOT
				culture = ROOT
				trait = fortune_builder
				trait = airnomad
				trait = airbender
				trait = incompetent_bender
				random_traits = yes
			}
			new_character = {
				give_job_title = job_treasurer 
			}
		}
		if = { # Create Spymaster
			limit = {
				NOR = {
					any_courtier_or_vassal = {
						has_job_title = job_spymaster
						liege = {
							character = ROOT
						}
					}
				}
			}
			create_character = {
				female = yes
				age = 21
				attributes = { 
					martial = 2
					diplomacy = 2
					stewardship = 2
					intrigue = 10
					learning = 2 
				}
				dynasty = random
				religion = ROOT
				culture = ROOT
				trait = intricate_webweaver
				trait = airnomad
				trait = airbender
				trait = incompetent_bender
				random_traits = yes
			}
			new_character = {
				give_job_title = job_spymaster 
			}
		}
		if = { # Create Spiritual
			limit = {
				NOR = {
					any_courtier_or_vassal = {
						has_job_title = job_spiritual
						liege = {
							character = ROOT
						}
					}
				}
			}
			create_character = {
				female = yes
				age = 21
				attributes = { 
					martial = 2
					diplomacy = 3
					stewardship = 2
					intrigue = 2
					learning = 12
				}
				dynasty = random
				religion = ROOT
				culture = ROOT
				trait = scholarly_theologian
				trait = airnomad
				trait = airbender
				trait = incompetent_bender
				random_traits = yes
			}
			new_character = {
				give_job_title = job_spiritual 
			}
		}
		if = { # Create Court Physician
			limit = {
				NOR = {
					any_courtier_or_vassal = {
						has_minor_title = title_court_physician
						liege = {
							character = ROOT
						}
					}
				}
			}
			create_character = {
				female = yes
				age = 21
				attributes = { 
					martial = 3
					diplomacy = 3
					stewardship = 4
					intrigue = 4
					learning = 16
				}
				dynasty = random
				religion = ROOT
				culture = ROOT
				trait = martial_cleric
				trait = physician
				trait = airnomad
				trait = airbender
				trait = incompetent_bender
				flag = is_court_physician
				flag = physician_beloved_wise_man
				random_traits = yes
			}
			new_character = {
				give_minor_title = title_court_physician 
			}
		}
	}
}

character_event = { # Festival Start
	id = NOMAD.13
	desc = NOMADEVTDESC13
	picture = GFX_evt_air_south
	is_triggered_only = yes

	option = {
		name = "EVTOPTANOMAD.13"
	}
}

character_event = { # Festival End
	id = NOMAD.14
	desc = NOMADEVTDESC13
	picture = GFX_evt_air_south
	is_triggered_only = yes

	option = {
		name = "EVTOPTANOMAD.13"
		clr_character_flag = do_not_disturb
		clr_character_flag = recent_minor_decision
		clr_character_flag = holding_nomad_festival
	}
}

# Adulthood
character_event = {
	id = NOMAD.15
	desc = NOMADEVTDESC15
	picture = GFX_evt_nomad_wander
	is_triggered_only = yes
	
	trigger = {
		OR = {
			culture = northern_air_nomad
			culture = eastern_air_nomad
			culture = southern_air_nomad
			culture = western_air_nomad
		}
		liege = {
			culture_group = air_nomad_culture
		}
		NOT = { trait = avatar }
		NOT = { trait = fullyrealisedavatar }
		NOT = { trait = directdescendantavatar }
		NOT = { trait = descendantavatar }
	}
	
	option = {
		name = "EVTOPTANOMADA.15"
		remove_trait = airinitiate
		add_trait = airnomad
		liege = { # Ask Liege
			hidden_tooltip = {
				character_event = { id = NOMAD.402 }
			}
		}
		trigger = {
			is_landed = no
		}
		ai_chance = {
			factor = 10
			modifier = {
				factor = 0.5
				OR = {
					trait = content
					trait = shy
					trait = craven
				}
			}
		}
	}
	
	option = {
		name = "EVTOPTANOMADB.15"
		remove_trait = airinitiate
		add_trait = airnomad
		if = {
			limit = {
				is_ruler = no
			}
			liege = { # Tell Liege
				hidden_tooltip = {
					character_event = { id = NOMAD.402 }
				}
			}
		}
		ai_chance = {
			factor = 1
			modifier = {
				factor = 0
				NOR = {
					trait = content
					trait = shy
					trait = craven
				}
			}
		}
	}
}

# Check
character_event = {
	id = NOMAD.16
	hide_window = yes
	is_triggered_only = yes
	is_married = yes
	
	trigger = {
		OR = {
			culture = northern_air_nomad
			culture = eastern_air_nomad
			culture = southern_air_nomad
			culture = western_air_nomad
		}
	}
	
	option = {
		remove_spouse = spouse
		add_trait = airnomad
	}
}

### Nomadic Lifestyle ###
# NOMAD.401 > 750

# Asks to go on Journey
character_event = {
	id = NOMAD.401
	desc = {
		trigger = {
			FROM = { is_child_of = ROOT }
		}
		text = NOMADEVTDESCA401
	}
	desc = {
		trigger = {
			FROM = { NOT = { is_child_of = ROOT } }
		}
		text = NOMADEVTDESCB401
	}
	picture = GFX_evt_nomad_wander
	is_triggered_only = yes
	
	option = {
		name = "EVTOPTANOMADA.401"
		FROM = {
			add_trait = on_journey
			set_character_flag = nomad_journey
			set_character_flag = do_not_disturb
		}
		ai_chance = {
			factor = 10
			modifier = {
				factor = 0
				NOT = { dynasty = FROM }
			}
		}
	}
	
	option = {
		name = "EVTOPTANOMADB.401"
		ai_chance = {
			factor = 1
			modifier = {
				factor = 0
				dynasty = FROM
			}
		}
	}
}

# Refuses to journey
character_event = {
	id = NOMAD.402
	desc = {
		trigger = {
			FROM = { is_child_of = ROOT }
		}
		text = NOMADEVTDESCA402
	}
	desc = {
		trigger = {
			FROM = { NOT = { is_child_of = ROOT } }
		}
		text = NOMADEVTDESCB402
	}
	picture = GFX_evt_nomad_wander
	is_triggered_only = yes
	
	option = {
		name = "EVTOPTANOMADA.402"
		FROM = {
			add_trait = on_journey
			set_character_flag = nomad_journey
			set_character_flag = do_not_disturb
		}
		ai_chance = {
			factor = 10
			modifier = {
				factor = 0
				NOT = { dynasty = FROM }
			}
		}
	}
	
	option = {
		name = "EVTOPTANOMADB.402"
		ai_chance = {
			factor = 1
			modifier = {
				factor = 0
				dynasty = FROM
			}
		}
	}
}

# Nomad Events
character_event = {
	id = NOMAD.404
	is_triggered_only = yes
	hide_window = yes
	culture_group = air_nomad_culture
	
	trigger = {
		has_character_flag = nomad_journey
		is_actually_important_trigger = yes
	}
	
	option = {
		random_list = { # Random Nomad Event
			10 = { # Make Friend
				character_event = { id = NOMAD.405 }
			}
			10 = { # Make Rival
				character_event = { id = NOMAD.406 }
			}
			10 = { # Find Companion
				character_event = { id = NOMAD.407 }
			}
			10 = { # End Journey
				liege = {
					character_event = { id = NOMAD.410 }
				}
				modifier = {
					factor = 0
					NOT = { age = 29 }
				}
				modifier = {
					factor = 4
					age = 35
				}
			}
			10 = { # Object of value
				wealth = 10
			}
			10 = { # Prove oneself
				prestige = 10
			}
			10 = { # Charity
				piety = 10
			}
			10 = { # Visit Ruler
				character_event = { id = NOMAD.412 }
			}
			10 = { # Have Children
				if = {
					limit = {
						is_female = no
					}
					character_event = { id = NOMAD.411 }
				}
				modifier = {
					factor = 0
					num_of_children = 3
				}
			}
		}
	}
}

# Journey: Make a Friend
character_event = {
	id = NOMAD.405
	is_triggered_only = yes
	hide_window = yes

	option = {
		random_playable_ruler = {
			limit = {
				culture_group = air_nomad_culture
				any_courtier = {
					has_character_flag = nomad_journey
					NOT = { is_friend = ROOT }
					NOT = { is_rival = ROOT }
					NOT = { is_lover = ROOT }
					NOT = { num_of_friends = 3 }
				}
			}
			random_courtier = {
				limit = {
					has_character_flag = nomad_journey
					NOT = { is_friend = ROOT }
					NOT = { is_rival = ROOT }
					NOT = { is_lover = ROOT }
					NOT = { num_of_friends = 3 }
				}
				add_friend = ROOT
			}
		}
	}
}

# Journey: Make a Rival
character_event = {
	id = NOMAD.406
	is_triggered_only = yes
	hide_window = yes

	option = {
		random_playable_ruler = {
			limit = {
				culture_group = air_nomad_culture
				any_courtier = {
					has_character_flag = nomad_journey
					NOT = { is_friend = ROOT }
					NOT = { is_rival = ROOT }
					NOT = { is_lover = ROOT }
					NOT = { num_of_rivals = 1 }
				}
			}
			random_courtier = {
				limit = {
					has_character_flag = nomad_journey
					NOT = { is_friend = ROOT }
					NOT = { is_rival = ROOT }
					NOT = { is_lover = ROOT }
					NOT = { num_of_rivals = 1 }
				}
				add_rival = ROOT
			}
		}
	}
}

# Journey: Find a companion
character_event = {
	id = NOMAD.407 
	is_triggered_only = yes
	hide_window = yes
	has_lover = no

	option = {
		clr_character_flag = nomad_wrote_home
		random_playable_ruler = {
			limit = {
				culture_group = air_nomad_culture
			}
			random_courtier = {
				limit = {
					has_character_flag = nomad_journey
					is_opposite_sex = ROOT
					has_lover = no
					NOT = { is_rival = ROOT }
				}
				add_lover = ROOT
				add_friend = ROOT
				clr_character_flag = nomad_wrote_home
				character_event = { id = NOMAD.409 }
			}
		}
	}
}

# Journey: Home
character_event = {
	id = NOMAD.408
	desc = NOMADEVTDESC408
	picture = GFX_evt_nomad_wander
	is_triggered_only = yes
	
	option = { # Approve
		name = "EVTOPTANOMADA.408"
	}
	
	option = { # Disapprove
		name = "EVTOPTANOMADB.408"
		FROMFROM = {
			remove_lover = FROM
		}
	}
}

# Journey: Home Ping
character_event = {
	id = NOMAD.409
	is_triggered_only = yes
	hide_window = yes
	
	trigger = {
		NOT = { has_character_flag = nomad_wrote_home }
	}
	
	option = {
		set_character_flag = nomad_wrote_home
		if = {
			limit = {
				ROOT = {
					liege = {
						dynasty = ROOT
						ai = no
					}
				}
			}
			ROOT = {
				liege = {
					character_event = { id = NOMAD.408 days = 7 } # Tell Parent
				}
			}
		}
		if = {
			limit = {
				FROM = {
					NOT = { has_character_flag = nomad_wrote_home }
				}
			}
			FROM = {
				character_event = { id = NOMAD.409 } # Tell Parent
			}
		}
	}
}

# Journey: Return Home
character_event = {
	id = NOMAD.410
	desc = {
		trigger = {
			FROM = { is_child_of = ROOT }
		}
		text = NOMADEVTDESCA410
	}
	desc = {
		trigger = {
			FROM = { NOT = { is_child_of = ROOT } }
		}
		text = NOMADEVTDESCB410
	}
	picture = GFX_evt_nomad_wander
	is_triggered_only = yes
	
	option = {
		name = "EVTOPTANOMADA.410"
		FROM = {
			remove_trait = on_journey
			clr_character_flag = nomad_journey
			clr_character_flag = do_not_disturb
		}
	}
}

# Journey: Children
character_event = {
	id = NOMAD.411
	is_triggered_only = yes
	hide_window = yes
	has_lover = yes

	option = {
		clr_character_flag = nomad_wrote_home
		random_lover = {
			limit = {
				has_character_flag = nomad_journey
				is_female = yes
			}
			ROOT = {
				impregnate = PREV
			}
		}
	}
}

# Journey: Visit Ruler
character_event = {
	id = NOMAD.412
	is_triggered_only = yes
	hide_window = yes
	
	trigger = {
		NOT = { has_character_flag = visitedLord }
	}

	option = {
		random_playable_ruler = {
			limit = {
				NOT = { has_character_flag = visitedByNomads }
				NOT = { religion = fire_nation_imperialism }
			}
			character_event = { id = NOMAD.409 days = 7 random = 31 } # Visit Ruler
			set_character_flag = visitedByNomads
		}
	}
}

# Journey: Visit Ruler - Ruler
character_event = {
	id = NOMAD.413
	desc = NOMADEVTDESC412
	picture = GFX_evt_nomad_wander
	is_triggered_only = yes
	
	immediate = {
		set_character_flag = visitedByNomads
	}
	
	option = { # Approve
		name = "EVTOPTANOMADA.412"
		hidden_tooltip = {
			character_event = { id = NOMAD.414 days = 3 } # Visit Ruler
		}
	}
	
	option = { # Disapprove
		name = "EVTOPTANOMADB.412"
	}
	
	option = { # Disapprove
		name = "EVTOPTANOMADC.412"
	}
}

# Journey: Visit Ruler - Ruler - Feast
character_event = {
	id = NOMAD.414
	desc = NOMADEVTDESC414
	picture = GFX_evt_feast
	is_triggered_only = yes
	
	option = { # Approve
		name = "EVTOPTANOMADA.414"
	}
	
	option = { # Disapprove
		name = "EVTOPTANOMADB.414"
	}
	
	option = { # Disapprove
		name = "EVTOPTANOMADC.414"
	}
}

### AIR NOMAD CONTROL EVENT
# Initiate
# Nomad
# Elder
character_event = {
	id = NOMAD.600
	is_triggered_only = yes
	hide_window = yes
	culture_group = air_nomad_culture
	
	trigger = {
		NOR = {
			trait = airinitiate
			trait = airnomad
			trait = airelder
		}
	}
	
	option = {
		if = {
			limit = {
				age = 50
			}
			add_trait = airelder
			add_trait = airbender
			add_trait = competent_bender
			break = yes
		}
		if = {
			limit = {
				NOT = { age = 50 }
				age = 16
			}
			add_trait = airnomad
			add_trait = airbender
			add_trait = incompetent_bender
			break = yes
		}
		if = {
			limit = {
				NOT = { age = 16 }
			}
			add_trait = airinitiate
			add_trait = airbender
			add_trait = incompetent_bender
			break = yes
		}
	}
}

# Claim Council Seat
character_event = {
	id = NOMAD.601
	desc = NOMADEVTDESC601
	picture = GFX_evt_nomad_wander
	is_triggered_only = yes
	
	option = { # Approve
		name = "EVTOPTANOMADA.601"
		hidden_tooltip = {
			any_society_member = {
				limit = {
					society_member_of = monastic_order_elder_council
					society_rank = 4
					NOT = { character = ROOT }
				}
				character_event = { id = NOMAD.602 }
			}
		}
	}
}

# Claim Council Seat
character_event = {
	id = NOMAD.602
	desc = NOMADEVTDESC602
	picture = GFX_evt_nomad_wander
	is_triggered_only = yes
	
	option = { # Approve
		name = "EVTOPTANOMADA.602"
	}
}

# Search for Successor
character_event = {
	id = NOMAD.603
	desc = NOMADEVTDESC603
	picture = GFX_evt_air_south
	is_triggered_only = yes
	
	option = { # Approve
		name = "EVTOPTANOMADA.603"
		hidden_tooltip = {
			character_event = { id = NOMAD.604 days = 21 }
		}
	}
	option = { # Cancel
		name = "EVTOPTANOMADB.603"
		clr_character_flag = search_for_successor
		trigger = { ai = no }
	}
}

# Search for Successor - Generate Candidate
character_event = {
	id = NOMAD.604
	hide_window = yes
	is_triggered_only = yes
	
	immediate = {
		if = {
			limit = {
				is_female = yes
			}
			random_list = {
				10 = {
					create_character = {
						female = yes
						age = 26
						attributes = {
							martial = 4
							diplomacy = 9
							stewardship = 5
							intrigue = 3
							learning = 4
						}
						dynasty = random
						religion = ROOT
						culture = ROOT
						trait = charismatic_negotiator
						trait = airnomad
						trait = airbender
						trait = incompetent_bender
					}
					new_character = {
						set_character_flag = is_diplomat_successor
						character_event = { id = NOMAD.605 }
					}
				}
				10 = {
					create_character = {
						female = yes
						age = 25
						attributes = { 
							martial = 9
							diplomacy = 4
							stewardship = 5
							intrigue = 6
							learning = 4 
						}
						dynasty = random
						religion = ROOT
						culture = ROOT
						trait = skilled_tactician
						trait = airnomad
						trait = airbender
						trait = master_bender
					}
					new_character = {
						set_character_flag = is_martial_successor
						character_event = { id = NOMAD.605 }
					}
				}
				10 = {
					create_character = {
						female = yes
						age = 22
						attributes = { 
							martial = 4
							diplomacy = 5
							stewardship = 9
							intrigue = 2
							learning = 6 
						}
						dynasty = random
						religion = ROOT
						culture = ROOT
						trait = fortune_builder
						trait = airnomad
						trait = airbender
						trait = incompetent_bender
						random_traits = yes
					}
					new_character = {
						set_character_flag = is_steward_successor
						character_event = { id = NOMAD.605 }
					}
				}
				10 = {
					create_character = {
						female = yes
						age = 24
						attributes = { 
							martial = 7
							diplomacy = 4
							stewardship = 3
							intrigue = 10
							learning = 5 
						}
						dynasty = random
						religion = ROOT
						culture = ROOT
						trait = intricate_webweaver
						trait = airnomad
						trait = airbender
						trait = competent_bender
						random_traits = yes
					}
					new_character = {
						set_character_flag = is_spy_successor
						character_event = { id = NOMAD.605 }
					}
				}
				10 = {
					create_character = {
						female = yes
						age = 21
						attributes = { 
							martial = 2
							diplomacy = 5
							stewardship = 6
							intrigue = 3
							learning = 12
						}
						dynasty = random
						religion = ROOT
						culture = ROOT
						trait = scholarly_theologian
						trait = airnomad
						trait = airbender
						trait = incompetent_bender
						random_traits = yes
					}
					new_character = {
						set_character_flag = is_learned_successor
						character_event = { id = NOMAD.605 }
					}
				}
			}
		}
		if = {
			limit = {
				is_female = no
			}
			random_list = {
				10 = {
					create_character = {
						age = 26
						attributes = {
							martial = 4
							diplomacy = 9
							stewardship = 5
							intrigue = 3
							learning = 4
						}
						dynasty = random
						religion = ROOT
						culture = ROOT
						trait = charismatic_negotiator
						trait = airnomad
						trait = airbender
						trait = incompetent_bender
					}
					new_character = {
						set_character_flag = is_diplomat_successor
						character_event = { id = NOMAD.605 }
					}
				}
				10 = {
					create_character = {
						age = 25
						attributes = { 
							martial = 9
							diplomacy = 4
							stewardship = 5
							intrigue = 6
							learning = 4 
						}
						dynasty = random
						religion = ROOT
						culture = ROOT
						trait = skilled_tactician
						trait = airnomad
						trait = airbender
						trait = master_bender
					}
					new_character = {
						set_character_flag = is_martial_successor
						character_event = { id = NOMAD.605 }
					}
				}
				10 = {
					create_character = {
						age = 22
						attributes = { 
							martial = 4
							diplomacy = 5
							stewardship = 9
							intrigue = 2
							learning = 6 
						}
						dynasty = random
						religion = ROOT
						culture = ROOT
						trait = fortune_builder
						trait = airnomad
						trait = airbender
						trait = incompetent_bender
						random_traits = yes
					}
					new_character = {
						set_character_flag = is_steward_successor
						character_event = { id = NOMAD.605 }
					}
				}
				10 = {
					create_character = {
						age = 24
						attributes = { 
							martial = 7
							diplomacy = 4
							stewardship = 3
							intrigue = 10
							learning = 5 
						}
						dynasty = random
						religion = ROOT
						culture = ROOT
						trait = intricate_webweaver
						trait = airnomad
						trait = airbender
						trait = competent_bender
						random_traits = yes
					}
					new_character = {
						set_character_flag = is_spy_successor
						character_event = { id = NOMAD.605 }
					}
				}
				10 = {
					create_character = {
						age = 21
						attributes = { 
							martial = 2
							diplomacy = 5
							stewardship = 6
							intrigue = 3
							learning = 12
						}
						dynasty = random
						religion = ROOT
						culture = ROOT
						trait = scholarly_theologian
						trait = airnomad
						trait = airbender
						trait = incompetent_bender
						random_traits = yes
					}
					new_character = {
						set_character_flag = is_learned_successor
						character_event = { id = NOMAD.605 }
					}
				}
			}
		}
	}
}

# Search for Successor - Generate Candidate - Ping
character_event = {
	id = NOMAD.605
	hide_window = yes
	is_triggered_only = yes
	
	option = {
		FROM = {
			character_event = { id = NOMAD.606 }
		}
	}
}

# Search for Successor - Chance #1
character_event = {
	id = NOMAD.606
	desc = {
		trigger = {
			FROM = { has_character_flag = is_diplomat_successor }
		}
		text = NOMADEVTDESC606A
	}
	desc = {
		trigger = {
			FROM = { has_character_flag = is_martial_successor }
		}
		text = NOMADEVTDESC606B
	}
	desc = {
		trigger = {
			FROM = { has_character_flag = is_steward_successor }
		}
		text = NOMADEVTDESC606C
	}
	desc = {
		trigger = {
			FROM = { has_character_flag = is_spy_successor }
		}
		text = NOMADEVTDESC606D
	}
	desc = {
		trigger = {
			FROM = { has_character_flag = is_learned_successor }
		}
		text = NOMADEVTDESC606E
	}
	picture = GFX_evt_air_south
	is_triggered_only = yes
	
	option = { # Approve - End Search
		name = "EVTOPTANOMADA.606"
		custom_tooltip = {
			text = end_search_for_successor_tooltip
			hidden_tooltip = {
				if = {
					limit = { is_female = yes }
					FROM = {
						set_mother = ROOT
						opinion = {
							modifier = opinion_adopted_as_successor
							who = ROOT
						}
						reverse_opinion = {
							modifier = opinion_adopted_as_a_successor
							who = ROOT
						}
					}
				}
				if = {
					limit = { is_female = no }
					FROM = {
						set_father = ROOT
						opinion = {
							modifier = opinion_adopted_as_successor
							who = ROOT
						}
						reverse_opinion = {
							modifier = opinion_adopted_as_a_successor
							who = ROOT
						}
					}
				}
			}
		}
		
	}
	option = { # Dismiss - Continue Search
		name = "EVTOPTANOMADB.606"
		hidden_tooltip = {
			character_event = { id = NOMAD.604 }
			set_character_flag = had_chance_to_find_successor
			FROM = {
				leave_court_effect = yes
				death = { death_reason = death_missing }
			}
		}
		trigger = {
			ai = no 
			NOT = { has_character_flag = had_chance_to_find_successor }
		}
	}
	option = {
		name = "EVTOPTANOMADC.606"
		trigger = { 
			has_character_flag = had_chance_to_find_successor
		}
	}
}

# Summon Council - BEGIN
character_event = {
	id = NOMAD.607
	desc = NOMADEVTDESC607
	picture = GFX_evt_air_south
	is_triggered_only = yes
	
	immediate = {
		clr_global_flag = cp_talked_aggression
		clr_global_flag = cp_talked_isolation
		clr_global_flag = cp_talked_pacifism
		clr_global_flag = cp_talked_nihilism
		clr_global_flag = cp_talked_trade
		clr_global_flag = cp_talked_protection
		clr_global_flag = cp_passed_law_change
		clr_global_flag = cp_passed_religion_change
		clr_global_flag = cp_passed_trade_change
	}
	
	option = { # Summon Council
		name = "EVTOPTANOMADA.607"
		hidden_tooltip = {
			character_event = { id = NOMAD.608 days = 21 }
			any_society_member = {
				limit = {
					society_member_of = monastic_order_elder_council
					society_rank = 4
					NOT = { character = ROOT }
				}
				clr_character_flag = cp_has_spoken
				character_event = { id = NOMAD.609 }
			}
		}
	}
}

# Summon Council - Choose Issue
character_event = {
	id = NOMAD.608
	desc = NOMADEVTDESC608
	picture = GFX_evt_air_south
	is_triggered_only = yes
	
	immediate = {
		any_society_member = {
			limit = {
				society_member_of = monastic_order_elder_council
				society_rank = 4
				NOT = { character = ROOT }
			}
			character_event = { id = NOMAD.610 }
		}
		set_character_flag = cp_has_spoken
		character_event = { id = NOMAD.616 days = 37 }
	}
	
	option = { # Change Policy - Towards Aggression
		name = "EVTOPTANOMADA.608"
		trigger = {
			primary_title = {
				NOT = { has_law = an_law_3 }
			}
		}
		custom_tooltip = {
			text = change_policy_to_aggression
			hidden_tooltip = {
				set_global_flag = cp_talked_aggression
				set_variable = { which = global_cp_aggression_vote value = 1 }
				any_society_member = { # Get Votes
					limit = {
						society_member_of = monastic_order_elder_council
						society_rank = 4
						NOT = { character = ROOT }
					}
					character_event = { id = NOMAD.611 days = 2 }
				}
				character_event = { id = NOMAD.612 days = 5 } # Get Vote Results
			}
		}
	}
	option = { # Change Policy - Towards Isolation
		name = "EVTOPTANOMADB.608"
		trigger = {
			primary_title = {
				NOT = { has_law = an_law_0 }
			}
		}
		custom_tooltip = {
			text = change_policy_to_isolation
			hidden_tooltip = {
				set_global_flag = cp_talked_isolation
				set_variable = { which = global_cp_isolation_vote value = 1 }
				any_society_member = { # Get Votes
					limit = {
						society_member_of = monastic_order_elder_council
						society_rank = 4
						NOT = { character = ROOT }
					}
					character_event = { id = NOMAD.618 days = 2 }
				}
				character_event = { id = NOMAD.619 days = 5 } # Get Vote Results
			}
		}
	}
	option = { # Change Policy - Reaffirm Pacifism
		name = "EVTOPTANOMADD.608"
		trigger = {
			religion = nomadic_pacifism
		}
		custom_tooltip = {
			text = change_policy_to_pacifism
			hidden_tooltip = {
				set_global_flag = cp_talked_pacifism
				set_variable = { which = global_cp_pacifism_vote value = 1 }
				any_society_member = { # Get Votes
					limit = {
						society_member_of = monastic_order_elder_council
						society_rank = 4
						NOT = { character = ROOT }
					}
					character_event = { id = NOMAD.620 days = 2 }
				}
				character_event = { id = NOMAD.621 days = 5 } # Get Vote Results
			}
		}
	}
	option = { # Change Policy - Reaffirm Nhilism
		name = "EVTOPTANOMADE.608"
		trigger = {
			religion = nomadic_nihilism
		}
		custom_tooltip = {
			text = change_policy_to_nihilism
			hidden_tooltip = {
				set_global_flag = cp_talked_nihilism
				set_variable = { which = global_cp_nihilism_vote value = 1 }
				any_society_member = { # Get Votes
					limit = {
						society_member_of = monastic_order_elder_council
						society_rank = 4
						NOT = { character = ROOT }
					}
					character_event = { id = NOMAD.622 days = 2 }
				}
				character_event = { id = NOMAD.623 days = 5 } # Get Vote Results
			}
		}
	}
	option = { # Change Policy - Reaffirm Trade
		name = "EVTOPTANOMADF.608"
		custom_tooltip = {
			text = change_policy_to_trade
			hidden_tooltip = {
				set_global_flag = cp_talked_trade
				set_variable = { which = global_cp_trade_vote value = 1 }
				any_society_member = { # Get Votes
					limit = {
						society_member_of = monastic_order_elder_council
						society_rank = 4
						NOT = { character = ROOT }
					}
					character_event = { id = NOMAD.624 days = 2 }
				}
				character_event = { id = NOMAD.625 days = 5 } # Get Vote Results
			}
		}
	}
	option = { # Change Policy - Reaffirm Protection
		name = "EVTOPTANOMADC.608"
		custom_tooltip = {
			text = change_policy_to_protection
			hidden_tooltip = {
				set_global_flag = cp_talked_protection
				set_variable = { which = global_cp_trade_vote value = 1 }
				any_society_member = { # Get Votes
					limit = {
						society_member_of = monastic_order_elder_council
						society_rank = 4
						NOT = { character = ROOT }
					}
					character_event = { id = NOMAD.626 days = 2 }
				}
				character_event = { id = NOMAD.627 days = 5 } # Get Vote Results
			}
		}
	}
}

# Summon Council - Notice
character_event = {
	id = NOMAD.609
	desc = NOMADEVTDESC609
	picture = GFX_evt_air_south
	is_triggered_only = yes
	
	option = { # Summon Known
		name = "EVTOPTANOMADA.609"
	}
}

# Summon Council - Notice - Begin
character_event = {
	id = NOMAD.610
	desc = NOMADEVTDESC610
	picture = GFX_evt_air_south
	is_triggered_only = yes
	
	option = { # Summon Known
		name = "EVTOPTANOMADA.610"
	}
}

# Summon Council - Vote on Aggression
character_event = {
	id = NOMAD.611
	desc = NOMADEVTDESC611
	picture = GFX_evt_air_south
	is_triggered_only = yes
	
	option = { # Vote Yes
		name = "EVTOPTANOMADA.611"
		custom_tooltip = {
			text = cp_vote_yes_to_aggression
			hidden_tooltip = {
				change_variable = { which = global_cp_aggression_vote value = 1 }
			}
		}
		ai_chance = {
			factor = 1
			modifier = {
				factor = 0.8
				has_global_flag = avatar_revealed
			}
			modifier = {
				factor = 0.8
				religion = nomadic_pacifism
			}
			modifier = {
				factor = 1.2
				religion = nomadic_nihilism
			}
			modifier = {
				factor = 2.5
				OR = {
					c_southern_air_temple = {
						owner = {
							NOT = { religion_group = air_religions }
						}
					}
					c_eastern_air_temple = {
						owner = {
							NOT = { religion_group = air_religions }
						}
					}
					c_northern_air_temple = {
						owner = {
							NOT = { religion_group = air_religions }
						}
					}
					c_western_air_temple = {
						owner = {
							NOT = { religion_group = air_religions }
						}
					}
				}
			}
		}
	}
	option = { # Vote No
		name = "EVTOPTANOMADB.611"
		custom_tooltip = {
			text = cp_vote_no_to_aggression
		}
		ai_chance = {
			factor = 1.5
			modifier = {
				factor = 0.9
				primary_title = {
					has_law = an_law_0
				}
			}
			modifier = {
				factor = 1.1
				primary_title = {
					has_law = an_law_1
				}
			}
			modifier = {
				factor = 1.2
				primary_title = {
					has_law = an_law_2
				}
			}
			modifier = {
				factor = 0.5
				has_global_flag = imperial_ambition_1
			}
			modifier = {
				factor = 0.2
				has_global_flag = HYW_4
			}
			modifier = {
				factor = 0.1
				has_global_flag = HYW_0
			}
		}
	}
}

# Summon Council - Vote on Aggression - Results
character_event = {
	id = NOMAD.612
	desc = {
		trigger = {
			check_variable = { which = global_cp_aggression_vote value = 3 }
		}
		text = NOMADEVTDESC612A
	}
	desc = {
		trigger = {
			NOT = { check_variable = { which = global_cp_aggression_vote value = 3 } }
		}
		text = NOMADEVTDESC612B
	}
	picture = GFX_evt_air_south
	is_triggered_only = yes
	
	option = {
		name = "EVTOPTANOMADA.612"
		custom_tooltip = {
			text = cp_pass_aggression
			hidden_tooltip = {
				set_global_flag = cp_passed_law_change
				random_society_member = {
					limit = {
						society_member_of = monastic_order_elder_council
						society_rank = 4
						NOT = { has_character_flag = cp_has_spoken }
					}
					character_event = { id = NOMAD.613 days = 3 }
				}
				any_playable_ruler = { # Send Notice
					limit = {
						ai = no
						culture_group = air_nomad_culture
						NOT = { character = ROOT }
					}
					character_event = { id = NOMAD.628 days = 1 }
				}
				if = { 
					limit = {
						primary_title = { 
							has_law = an_law_2 
						}
					}
					any_independent_ruler = {
						limit = { religion_group = air_religions }
						primary_title = {
							add_law = { law = an_law_3 cooldown = no opinion_effect = no }
						}
					}
				}
				if = { 
					limit = {
						primary_title = { 
							has_law = an_law_1 
						}
					}
					any_independent_ruler = {
						limit = { religion_group = air_religions }
						primary_title = {
							add_law = { law = an_law_2 cooldown = no opinion_effect = no }
						}
					}
				}
				if = { 
					limit = {
						primary_title = { 
							has_law = an_law_0 
						}
					}
					any_independent_ruler = {
						limit = { religion_group = air_religions }
						primary_title = {
							add_law = { law = an_law_1 cooldown = no opinion_effect = no }
						}
					}
				}
			}
		}
		trigger = {
			check_variable = { which = global_cp_aggression_vote value = 3 }
		}
	}
	
	option = {
		name = "EVTOPTANOMADB.612"
		custom_tooltip = {
			text = cp_fail_pass_aggression
			hidden_tooltip = {
				random_society_member = {
					limit = {
						society_member_of = monastic_order_elder_council
						society_rank = 4
						NOT = { has_character_flag = cp_has_spoken }
					}
					character_event = { id = NOMAD.613 days = 3 }
				}
				any_playable_ruler = { # Send Notice
					limit = {
						ai = no
						culture_group = air_nomad_culture
						NOT = { character = ROOT }
					}
					character_event = { id = NOMAD.628 days = 1 }
				}
			}
		}
		trigger = {
			NOT = { check_variable = { which = global_cp_aggression_vote value = 3 } }
		}
	}
}

# Summon Council - Choose Issue - Next Speaker
character_event = {
	id = NOMAD.613
	desc = NOMADEVTDESC613
	picture = GFX_evt_air_south
	is_triggered_only = yes
	
	immediate = {
		set_character_flag = cp_has_spoken
	}
	
	option = { # Change Policy - Towards Aggression
		name = "EVTOPTANOMADA.608"
		trigger = {
			NOR = {
				has_global_flag = cp_passed_law_change
				has_global_flag = cp_talked_aggression
			}
			primary_title = {
				NOT = { has_law = an_law_3 }
			}
		}
		custom_tooltip = {
			text = change_policy_to_aggression
			hidden_tooltip = {
				set_global_flag = cp_talked_aggression
				set_variable = { which = global_cp_aggression_vote value = 1 }
				any_society_member = { # Get Votes
					limit = {
						society_member_of = monastic_order_elder_council
						society_rank = 4
						NOT = { character = ROOT }
					}
					character_event = { id = NOMAD.611 days = 2 }
				}
				character_event = { id = NOMAD.612 days = 5 } # Get Vote Results
			}
		}
	}
	option = { # Change Policy - Towards Isolation
		name = "EVTOPTANOMADB.608"
		trigger = {
			NOR = {
				has_global_flag = cp_passed_law_change
				has_global_flag = cp_talked_isolation
			}
			primary_title = {
				NOT = { has_law = an_law_0 }
			}
		}
		custom_tooltip = {
			text = change_policy_to_isolation
			hidden_tooltip = {
				set_global_flag = cp_talked_isolation
				set_variable = { which = global_cp_isolation_vote value = 1 }
				any_society_member = { # Get Votes
					limit = {
						society_member_of = monastic_order_elder_council
						society_rank = 4
						NOT = { character = ROOT }
					}
					character_event = { id = NOMAD.618 days = 2 }
				}
				character_event = { id = NOMAD.619 days = 5 } # Get Vote Results
			}
		}
	}
	option = { # Change Policy - Reaffirm Pacifism
		name = "EVTOPTANOMADD.608"
		trigger = {
			NOR = {
				has_global_flag = cp_passed_religion_change
				has_global_flag = cp_talked_pacifism
			}
			religion = nomadic_pacifism
		}
		custom_tooltip = {
			text = change_policy_to_pacifism
			hidden_tooltip = {
				set_global_flag = cp_talked_pacifism
				set_variable = { which = global_cp_pacifism_vote value = 1 }
				any_society_member = { # Get Votes
					limit = {
						society_member_of = monastic_order_elder_council
						society_rank = 4
						NOT = { character = ROOT }
					}
					character_event = { id = NOMAD.620 days = 2 }
				}
				character_event = { id = NOMAD.621 days = 5 } # Get Vote Results
			}
		}
	}
	option = { # Change Policy - Reaffirm Nhilism
		name = "EVTOPTANOMADE.608"
		trigger = {
			NOR = {
				has_global_flag = cp_passed_religion_change
				has_global_flag = cp_talked_nihilism
			}
			religion = nomadic_nihilism
		}
		custom_tooltip = {
			text = change_policy_to_nihilism
			hidden_tooltip = {
				set_global_flag = cp_talked_nihilism
				set_variable = { which = global_cp_nihilism_vote value = 1 }
				any_society_member = { # Get Votes
					limit = {
						society_member_of = monastic_order_elder_council
						society_rank = 4
						NOT = { character = ROOT }
					}
					character_event = { id = NOMAD.622 days = 2 }
				}
				character_event = { id = NOMAD.623 days = 5 } # Get Vote Results
			}
		}
	}
	option = { # Change Policy - Reaffirm Trade
		name = "EVTOPTANOMADF.608"
		trigger = {
			NOR = {
				has_global_flag = cp_passed_trade_change
				has_global_flag = cp_talked_trade
			}
		}
		custom_tooltip = {
			text = change_policy_to_trade
			hidden_tooltip = {
				set_global_flag = cp_talked_trade
				set_variable = { which = global_cp_trade_vote value = 1 }
				any_society_member = { # Get Votes
					limit = {
						society_member_of = monastic_order_elder_council
						society_rank = 4
						NOT = { character = ROOT }
					}
					character_event = { id = NOMAD.624 days = 2 }
				}
				character_event = { id = NOMAD.625 days = 5 } # Get Vote Results
			}
		}
	}
	option = { # Change Policy - Reaffirm Protection
		name = "EVTOPTANOMADC.608"
		trigger = {
			NOR = {
				has_global_flag = cp_passed_trade_change
				has_global_flag = cp_talked_trade
			}
		}
		custom_tooltip = {
			text = change_policy_to_protection
			hidden_tooltip = {
				set_global_flag = cp_talked_protection
				set_variable = { which = global_cp_protection_vote value = 1 }
				any_society_member = { # Get Votes
					limit = {
						society_member_of = monastic_order_elder_council
						society_rank = 4
						NOT = { character = ROOT }
					}
					character_event = { id = NOMAD.626 days = 2 }
				}
				character_event = { id = NOMAD.627 days = 5 } # Get Vote Results
			}
		}
	}
	option = { # Change Policy - Nothing More
		name = "EVTOPTANOMADG.608"
		trigger = {
			OR = {
				ai = no
				AND = {
					has_global_flag = cp_passed_law_change
					has_global_flag = cp_passed_religion_change
					has_global_flag = cp_passed_trade_change
				}
			}
		}
		hidden_tooltip = {
			random_society_member = {
				limit = {
					society_member_of = monastic_order_elder_council
					society_rank = 4
					NOT = { has_character_flag = cp_has_spoken }
				}
				character_event = { id = NOMAD.613 days = 3 }
			}
		}
	}
}

# Summon Council - End of Meeting
character_event = {
	id = NOMAD.616
	desc = NOMADEVTDESC616
	picture = GFX_evt_air_south
	is_triggered_only = yes
	
	immediate = {
		any_society_member = {
			limit = {
				society_member_of = monastic_order_elder_council
				society_rank = 4
				NOT = { character = ROOT }
			}
			character_event = { id = NOMAD.617 }
		}
	}
	
	option = {
		name = "EVTOPTANOMADA.616"
	}
}

# Summon Council - End of Meeting - Members
character_event = {
	id = NOMAD.617
	desc = NOMADEVTDESC617
	picture = GFX_evt_air_south
	is_triggered_only = yes
	
	option = {
		name = "EVTOPTANOMADA.617"
	}
}

# Summon Council - Vote on Isolation
character_event = {
	id = NOMAD.618
	desc = NOMADEVTDESC618
	picture = GFX_evt_air_south
	is_triggered_only = yes
	
	option = { # Vote Yes
		name = "EVTOPTANOMADA.618"
		custom_tooltip = {
			text = cp_vote_yes_to_isolation
			hidden_tooltip = {
				change_variable = { which = global_cp_isolation_vote value = 1 }
			}
		}
		ai_chance = {
			factor = 1
			modifier = {
				factor = 0.9
				primary_title = {
					has_law = an_law_3
				}
			}
			modifier = {
				factor = 1.1
				primary_title = {
					has_law = an_law_2
				}
			}
			modifier = {
				factor = 1.2
				primary_title = {
					has_law = an_law_1
				}
			}
			modifier = {
				factor = 0.5
				has_global_flag = imperial_ambition_1
			}
			modifier = {
				factor = 0.2
				has_global_flag = HYW_4
			}
			modifier = {
				factor = 0.1
				has_global_flag = HYW_0
			}
		}
	}
	option = { # Vote No
		name = "EVTOPTANOMADB.618"
		custom_tooltip = {
			text = cp_vote_no_to_isolation
		}
		ai_chance = {
			factor = 1.5
			modifier = {
				factor = 0.8
				has_global_flag = avatar_revealed
			}
			modifier = {
				factor = 0.8
				religion = nomadic_pacifism
			}
			modifier = {
				factor = 1.2
				religion = nomadic_nihilism
			}
			modifier = {
				factor = 2.5
				OR = {
					c_southern_air_temple = {
						owner = {
							NOT = { religion_group = air_religions }
						}
					}
					c_eastern_air_temple = {
						owner = {
							NOT = { religion_group = air_religions }
						}
					}
					c_northern_air_temple = {
						owner = {
							NOT = { religion_group = air_religions }
						}
					}
					c_western_air_temple = {
						owner = {
							NOT = { religion_group = air_religions }
						}
					}
				}
			}
		}
	}
}

# Summon Council - Vote on Isolation - Results
character_event = {
	id = NOMAD.619
	desc = {
		trigger = {
			check_variable = { which = global_cp_isolation_vote value = 3 }
		}
		text = NOMADEVTDESC619A
	}
	desc = {
		trigger = {
			NOT = { check_variable = { which = global_cp_isolation_vote value = 3 } }
		}
		text = NOMADEVTDESC619B
	}
	picture = GFX_evt_air_south
	is_triggered_only = yes
	
	option = {
		name = "EVTOPTANOMADA.619"
		custom_tooltip = {
			text = cp_pass_isolation
			hidden_tooltip = {
				set_global_flag = cp_passed_law_change
				random_society_member = {
					limit = {
						society_member_of = monastic_order_elder_council
						society_rank = 4
						NOT = { has_character_flag = cp_has_spoken }
					}
					character_event = { id = NOMAD.613 days = 3 }
				}
				any_playable_ruler = { # Send Notice
					limit = {
						ai = no
						culture_group = air_nomad_culture
						NOT = { character = ROOT }
					}
					character_event = { id = NOMAD.629 days = 1 }
				}
				if = {
					limit = {
						primary_title = { 
							has_law = an_law_3
						}
					}
					any_independent_ruler = {
						limit = { religion_group = air_religions }
						primary_title = {
							add_law = { law = an_law_2 cooldown = no opinion_effect = no }
						}
					}
				}
				if = { 
					limit = {
						primary_title = { 
							has_law = an_law_2
						}
					}
					any_independent_ruler = {
						limit = { religion_group = air_religions }
						primary_title = {
							add_law = { law = an_law_1 cooldown = no opinion_effect = no }
						}
					}
				}
				if = {
					limit = {
						primary_title = { 
							has_law = an_law_1
						}
					}
					any_independent_ruler = {
						limit = { religion_group = air_religions }
						primary_title = {
							add_law = { law = an_law_0 cooldown = no opinion_effect = no }
						}
					}
				}
			}
		}
		trigger = {
			check_variable = { which = global_cp_isolation_vote value = 3 }
		}
	}
	
	option = {
		name = "EVTOPTANOMADB.619"
		custom_tooltip = {
			text = cp_fail_pass_isolation
			hidden_tooltip = {
				random_society_member = {
					limit = {
						society_member_of = monastic_order_elder_council
						society_rank = 4
						NOT = { has_character_flag = cp_has_spoken }
					}
					character_event = { id = NOMAD.613 days = 3 }
				}
				any_playable_ruler = { # Send Notice
					limit = {
						ai = no
						culture_group = air_nomad_culture
						NOT = { character = ROOT }
					}
					character_event = { id = NOMAD.629 days = 1 }
				}
			}
		}
		trigger = {
			NOT = { check_variable = { which = global_cp_isolation_vote value = 3 } }
		}
	}
}

# Summon Council - Vote on Pacifism
character_event = {
	id = NOMAD.620
	desc = NOMADEVTDESC620
	picture = GFX_evt_air_south
	is_triggered_only = yes
	
	option = { # Vote Yes
		name = "EVTOPTANOMADA.620"
		custom_tooltip = {
			text = cp_vote_yes_to_pacifism
			hidden_tooltip = {
				change_variable = { which = global_cp_pacifism_vote value = 1 }
			}
		}
		ai_chance = {
			factor = 1
			modifier = {
				factor = 2.0
				religion = nomadic_pacifism
			}
			modifier = {
				factor = 0.1
				religion = nomadic_nihilism
			}
			modifier = {
				factor = 1.1
				has_global_flag = avatar_revealed
			}
			modifier = {
				factor = 0.5
				primary_title = {
					has_law = an_law_3
				}
			}
			modifier = {
				factor = 0.8
				primary_title = {
					has_law = an_law_2
				}
			}
			modifier = {
				factor = 1.2
				primary_title = {
					has_law = an_law_1
				}
			}
			modifier = {
				factor = 1.5
				primary_title = {
					has_law = an_law_0
				}
			}
			modifier = {
				factor = 0.1
				has_global_flag = imperial_ambition_1
			}
			modifier = {
				factor = 0.1
				has_global_flag = HYW_4
			}
			modifier = {
				factor = 0.1
				has_global_flag = HYW_0
			}
		}
	}
	option = { # Vote No
		name = "EVTOPTANOMADB.620"
		custom_tooltip = {
			text = cp_vote_no_to_pacifism
		}
		ai_chance = {
			factor = 1.5
			modifier = {
				factor = 0.5
				NOT = { has_global_flag = avatar_revealed }
			}
			modifier = {
				factor = 0.5
				religion = nomadic_pacifism
			}
			modifier = {
				factor = 3.5
				religion = nomadic_nihilism
			}
			modifier = {
				factor = 0.1
				OR = {
					c_southern_air_temple = {
						owner = {
							NOT = { religion_group = air_religions }
						}
					}
					c_eastern_air_temple = {
						owner = {
							NOT = { religion_group = air_religions }
						}
					}
					c_northern_air_temple = {
						owner = {
							NOT = { religion_group = air_religions }
						}
					}
					c_western_air_temple = {
						owner = {
							NOT = { religion_group = air_religions }
						}
					}
				}
			}
		}
	}
}

# Summon Council - Vote on Pacifism - Results
character_event = {
	id = NOMAD.621
	desc = {
		trigger = {
			check_variable = { which = global_cp_pacifism_vote value = 3 }
		}
		text = NOMADEVTDESC621A
	}
	desc = {
		trigger = {
			NOT = { check_variable = { which = global_cp_pacifism_vote value = 3 } }
		}
		text = NOMADEVTDESC621B
	}
	picture = GFX_evt_air_south
	is_triggered_only = yes
	
	option = {
		name = "EVTOPTANOMADA.621"
		custom_tooltip = {
			text = cp_pass_pacifism
			hidden_tooltip = {
				set_global_flag = cp_passed_religion_change
				random_society_member = {
					limit = {
						society_member_of = monastic_order_elder_council
						society_rank = 4
						NOT = { has_character_flag = cp_has_spoken }
					}
					character_event = { id = NOMAD.613 days = 3 }
				}
				any_playable_ruler = { # Send Notice
					limit = {
						ai = no
						culture_group = air_nomad_culture
						NOT = { character = ROOT }
					}
					character_event = { id = NOMAD.630 days = 1 }
				}
			}
			random_province = {
				limit = {
					religion = nomadic_nihilism
				}
				religion = nomadic_pacifism
			}
		}
		trigger = {
			check_variable = { which = global_cp_pacifism_vote value = 3 }
		}
	}
	
	option = {
		name = "EVTOPTANOMADB.621"
		custom_tooltip = {
			text = cp_fail_pass_pacifism
			hidden_tooltip = {
				random_society_member = {
					limit = {
						society_member_of = monastic_order_elder_council
						society_rank = 4
						NOT = { has_character_flag = cp_has_spoken }
					}
					character_event = { id = NOMAD.613 days = 3 }
				}
				any_playable_ruler = { # Send Notice
					limit = {
						ai = no
						culture_group = air_nomad_culture
						NOT = { character = ROOT }
					}
					character_event = { id = NOMAD.630 days = 1 }
				}
			}
		}
		trigger = {
			NOT = { check_variable = { which = global_cp_pacifism_vote value = 3 } }
		}
	}
}

# Summon Council - Vote on Nihilism
character_event = {
	id = NOMAD.622
	desc = NOMADEVTDESC622
	picture = GFX_evt_air_south
	is_triggered_only = yes
	
	option = { # Vote Yes
		name = "EVTOPTANOMADA.622"
		custom_tooltip = {
			text = cp_vote_yes_to_nihilism
			hidden_tooltip = {
				change_variable = { which = global_cp_nihilism_vote value = 1 }
			}
		}
		ai_chance = {
			factor = 1
			modifier = {
				factor = 0.5
				NOT = { has_global_flag = avatar_revealed }
			}
			modifier = {
				factor = 0.5
				religion = nomadic_pacifism
			}
			modifier = {
				factor = 3.5
				religion = nomadic_nihilism
			}
			modifier = {
				factor = 0.1
				OR = {
					c_southern_air_temple = {
						owner = {
							NOT = { religion_group = air_religions }
						}
					}
					c_eastern_air_temple = {
						owner = {
							NOT = { religion_group = air_religions }
						}
					}
					c_northern_air_temple = {
						owner = {
							NOT = { religion_group = air_religions }
						}
					}
					c_western_air_temple = {
						owner = {
							NOT = { religion_group = air_religions }
						}
					}
				}
			}
		}
	}
	option = { # Vote No
		name = "EVTOPTANOMADB.622"
		custom_tooltip = {
			text = cp_vote_no_to_nihilism
		}
		ai_chance = {
			factor = 1.5
			modifier = {
				factor = 2.0
				religion = nomadic_pacifism
			}
			modifier = {
				factor = 0.1
				religion = nomadic_nihilism
			}
			modifier = {
				factor = 1.1
				has_global_flag = avatar_revealed
			}
			modifier = {
				factor = 0.5
				primary_title = {
					has_law = an_law_3
				}
			}
			modifier = {
				factor = 0.8
				primary_title = {
					has_law = an_law_2
				}
			}
			modifier = {
				factor = 1.2
				primary_title = {
					has_law = an_law_1
				}
			}
			modifier = {
				factor = 1.5
				primary_title = {
					has_law = an_law_0
				}
			}
			modifier = {
				factor = 0.1
				has_global_flag = imperial_ambition_1
			}
			modifier = {
				factor = 0.1
				has_global_flag = HYW_4
			}
			modifier = {
				factor = 0.1
				has_global_flag = HYW_0
			}
		}
	}
}

# Summon Council - Vote on Nihilism - Results
character_event = {
	id = NOMAD.623
	desc = {
		trigger = {
			check_variable = { which = global_cp_nihilism_vote value = 3 }
		}
		text = NOMADEVTDESC623A
	}
	desc = {
		trigger = {
			NOT = { check_variable = { which = global_cp_nihilism_vote value = 3 } }
		}
		text = NOMADEVTDESC623B
	}
	picture = GFX_evt_air_south
	is_triggered_only = yes
	
	option = {
		name = "EVTOPTANOMADA.623"
		custom_tooltip = {
			text = cp_pass_nihilism
			hidden_tooltip = {
				set_global_flag = cp_passed_religion_change
				random_society_member = {
					limit = {
						society_member_of = monastic_order_elder_council
						society_rank = 4
						NOT = { has_character_flag = cp_has_spoken }
					}
					character_event = { id = NOMAD.613 days = 3 }
				}
				any_playable_ruler = { # Send Notice
					limit = {
						ai = no
						culture_group = air_nomad_culture
						NOT = { character = ROOT }
					}
					character_event = { id = NOMAD.631 days = 1 }
				}
			}
			random_province = {
				limit = {
					religion = nomadic_pacifism
				}
				religion = nomadic_nihilism
			}
		}
		trigger = {
			check_variable = { which = global_cp_nihilism_vote value = 3 }
		}
	}
	
	option = {
		name = "EVTOPTANOMADB.623"
		custom_tooltip = {
			text = cp_fail_pass_nihilism
			hidden_tooltip = {
				random_society_member = {
					limit = {
						society_member_of = monastic_order_elder_council
						society_rank = 4
						NOT = { has_character_flag = cp_has_spoken }
					}
					character_event = { id = NOMAD.613 days = 3 }
				}
				any_playable_ruler = { # Send Notice
					limit = {
						ai = no
						culture_group = air_nomad_culture
						NOT = { character = ROOT }
					}
					character_event = { id = NOMAD.631 days = 1 }
				}
			}
		}
		trigger = {
			NOT = { check_variable = { which = global_cp_nihilism_vote value = 3 } }
		}
	}
}

# Summon Council - Vote on Trade
character_event = {
	id = NOMAD.624
	desc = NOMADEVTDESC624
	picture = GFX_evt_air_south
	is_triggered_only = yes
	
	option = { # Vote Yes
		name = "EVTOPTANOMADA.624"
		custom_tooltip = {
			text = cp_vote_yes_to_trade
			hidden_tooltip = {
				change_variable = { which = global_cp_trade_vote value = 1 }
			}
		}
		ai_chance = {
			factor = 1
			modifier = {
				factor = 1.5
				religion = nomadic_pacifism
			}
			modifier = {
				factor = 0.9
				religion = nomadic_nihilism
			}
		}
	}
	option = { # Vote No
		name = "EVTOPTANOMADB.624"
		custom_tooltip = {
			text = cp_vote_no_to_trade
		}
		ai_chance = {
			factor = 0.5
			modifier = {
				factor = 5.5
				primary_title = {
					has_law = an_law_0
				}
			}
			modifier = {
				factor = 3.5
				primary_title = {
					has_law = an_law_1
				}
			}
			modifier = {
				factor = 2.5
				has_global_flag = HYW_0
			}
			modifier = {
				factor = 2.5
				any_realm_province = {
					has_disease = yes
				}
			}
		}
	}
}

# Summon Council - Vote on Trade - Results
character_event = {
	id = NOMAD.625
	desc = {
		trigger = {
			check_variable = { which = global_cp_trade_vote value = 3 }
		}
		text = NOMADEVTDESC625A
	}
	desc = {
		trigger = {
			NOT = { check_variable = { which = global_cp_trade_vote value = 3 } }
		}
		text = NOMADEVTDESC625B
	}
	picture = GFX_evt_air_south
	is_triggered_only = yes
	
	option = {
		name = "EVTOPTANOMADA.625"
		custom_tooltip = {
			text = cp_pass_trade
			hidden_tooltip = {
				set_global_flag = cp_passed_trade_change
				random_society_member = {
					limit = {
						society_member_of = monastic_order_elder_council
						society_rank = 4
						NOT = { has_character_flag = cp_has_spoken }
					}
					character_event = { id = NOMAD.613 days = 3 }
					any_province = {
						limit = { religion_group = air_religions }
						add_province_modifier = { name = cp_boost_trade duration = 2840 }
					}
				}
				any_playable_ruler = { # Send Notice
					limit = {
						ai = no
						culture_group = air_nomad_culture
						NOT = { character = ROOT }
					}
					character_event = { id = NOMAD.632 days = 1 }
				}
			}
		}
		trigger = {
			check_variable = { which = global_cp_trade_vote value = 3 }
		}
	}
	
	option = {
		name = "EVTOPTANOMADB.625"
		custom_tooltip = {
			text = cp_fail_pass_trade
			hidden_tooltip = {
				random_society_member = {
					limit = {
						society_member_of = monastic_order_elder_council
						society_rank = 4
						NOT = { has_character_flag = cp_has_spoken }
					}
					character_event = { id = NOMAD.613 days = 3 }
				}
				any_playable_ruler = { # Send Notice
					limit = {
						ai = no
						culture_group = air_nomad_culture
						NOT = { character = ROOT }
					}
					character_event = { id = NOMAD.632 days = 1 }
				}
			}
		}
		trigger = {
			NOT = { check_variable = { which = global_cp_trade_vote value = 3 } }
		}
	}
}

# Summon Council - Vote on Protection
character_event = {
	id = NOMAD.626
	desc = NOMADEVTDESC626
	picture = GFX_evt_air_south
	is_triggered_only = yes
	
	option = { # Vote Yes
		name = "EVTOPTANOMADA.626"
		custom_tooltip = {
			text = cp_vote_yes_to_protection
			hidden_tooltip = {
				change_variable = { which = global_cp_protection_vote value = 1 }
			}
		}
		ai_chance = {
			factor = 1
			modifier = {
				factor = 4.5
				primary_title = {
					has_law = an_law_0
				}
			}
			modifier = {
				factor = 2.5
				primary_title = {
					has_law = an_law_1
				}
			}
			modifier = {
				factor = 1.5
				has_global_flag = HYW_0
			}
			modifier = {
				factor = 3.5
				any_realm_province = {
					has_disease = yes
				}
			}
		}
	}
	option = { # Vote No
		name = "EVTOPTANOMADB.626"
		custom_tooltip = {
			text = cp_vote_no_to_protection
		}
		ai_chance = {
			factor = 0.5
			modifier = {
				factor = 1.5
				religion = nomadic_pacifism
			}
			modifier = {
				factor = 0.9
				religion = nomadic_nihilism
			}
		}
	}
}

# Summon Council - Vote on Protection - Results
character_event = {
	id = NOMAD.627
	desc = {
		trigger = {
			check_variable = { which = global_cp_protection_vote value = 3 }
		}
		text = NOMADEVTDESC627A
	}
	desc = {
		trigger = {
			NOT = { check_variable = { which = global_cp_protection_vote value = 3 } }
		}
		text = NOMADEVTDESC627B
	}
	picture = GFX_evt_air_south
	is_triggered_only = yes
	
	option = {
		name = "EVTOPTANOMADA.627"
		custom_tooltip = {
			text = cp_pass_protection
			hidden_tooltip = {
				set_global_flag = cp_passed_trade_change
				random_society_member = {
					limit = {
						society_member_of = monastic_order_elder_council
						society_rank = 4
						NOT = { has_character_flag = cp_has_spoken }
					}
					character_event = { id = NOMAD.613 days = 3 }
					any_province = {
						limit = { religion_group = air_religions }
						add_province_modifier = { name = cp_boost_protection duration = 2840 }
					}
				}
				any_playable_ruler = { # Send Notice
					limit = {
						ai = no
						culture_group = air_nomad_culture
						NOT = { character = ROOT }
					}
					character_event = { id = NOMAD.633 days = 1 }
				}
			}
		}
		trigger = {
			check_variable = { which = global_cp_protection_vote value = 3 }
		}
	}
	
	option = {
		name = "EVTOPTANOMADB.627"
		custom_tooltip = {
			text = cp_fail_pass_protection
			hidden_tooltip = {
				random_society_member = {
					limit = {
						society_member_of = monastic_order_elder_council
						society_rank = 4
						NOT = { has_character_flag = cp_has_spoken }
					}
					character_event = { id = NOMAD.613 days = 3 }
				}
				any_playable_ruler = { # Send Notice
					limit = {
						ai = no
						culture_group = air_nomad_culture
						NOT = { character = ROOT }
					}
					character_event = { id = NOMAD.633 days = 1 }
				}
			}
		}
		trigger = {
			NOT = { check_variable = { which = global_cp_protection_vote value = 3 } }
		}
	}
}

# Summon Council - Outcome on Aggression
character_event = {
	id = NOMAD.628
	desc = {
		trigger = {
			check_variable = { which = global_cp_aggression_vote value = 3 }
		}
		text = NOMADEVTDESC628A
	}
	desc = {
		trigger = {
			NOT = { check_variable = { which = global_cp_aggression_vote value = 3 } }
		}
		text = NOMADEVTDESC628B
	}
	picture = GFX_evt_air_south
	is_triggered_only = yes
	
	option = {
		name = "EVTOPTANOMADA.628"
		custom_tooltip = {
			text = cp_pass_aggression
		}
		trigger = {
			check_variable = { which = global_cp_aggression_vote value = 3 }
		}
	}
	
	option = {
		name = "EVTOPTANOMADB.628"
		custom_tooltip = {
			text = cp_fail_pass_aggression
		}
		trigger = {
			NOT = { check_variable = { which = global_cp_aggression_vote value = 3 } }
		}
	}
}

# Summon Council - Outcome on Isolation
character_event = {
	id = NOMAD.629
	desc = {
		trigger = {
			check_variable = { which = global_cp_isolation_vote value = 3 }
		}
		text = NOMADEVTDESC629A
	}
	desc = {
		trigger = {
			NOT = { check_variable = { which = global_cp_isolation_vote value = 3 } }
		}
		text = NOMADEVTDESC629B
	}
	picture = GFX_evt_air_south
	is_triggered_only = yes
	
	option = {
		name = "EVTOPTANOMADA.629"
		custom_tooltip = {
			text = cp_pass_isolation
		}
		trigger = {
			check_variable = { which = global_cp_isolation_vote value = 3 }
		}
	}
	
	option = {
		name = "EVTOPTANOMADB.629"
		custom_tooltip = {
			text = cp_fail_pass_isolation
		}
		trigger = {
			NOT = { check_variable = { which = global_cp_isolation_vote value = 3 } }
		}
	}
}

# Summon Council - Outcome on Pacifism
character_event = {
	id = NOMAD.630
	desc = {
		trigger = {
			check_variable = { which = global_cp_pacifism_vote value = 3 }
		}
		text = NOMADEVTDESC630A
	}
	desc = {
		trigger = {
			NOT = { check_variable = { which = global_cp_pacifism_vote value = 3 } }
		}
		text = NOMADEVTDESC630B
	}
	picture = GFX_evt_air_south
	is_triggered_only = yes
	
	option = {
		name = "EVTOPTANOMADA.630"
		custom_tooltip = {
			text = cp_pass_pacifism
		}
		trigger = {
			check_variable = { which = global_cp_pacifism_vote value = 3 }
		}
	}
	
	option = {
		name = "EVTOPTANOMADB.630"
		custom_tooltip = {
			text = cp_fail_pass_pacifism
		}
		trigger = {
			NOT = { check_variable = { which = global_cp_pacifism_vote value = 3 } }
		}
	}
}

# Summon Council - Outcome on Nihilism
character_event = {
	id = NOMAD.631
	desc = {
		trigger = {
			check_variable = { which = global_cp_nihilism_vote value = 3 }
		}
		text = NOMADEVTDESC631A
	}
	desc = {
		trigger = {
			NOT = { check_variable = { which = global_cp_nihilism_vote value = 3 } }
		}
		text = NOMADEVTDESC631B
	}
	picture = GFX_evt_air_south
	is_triggered_only = yes
	
	option = {
		name = "EVTOPTANOMADA.631"
		custom_tooltip = {
			text = cp_pass_nihilism
		}
		trigger = {
			check_variable = { which = global_cp_nihilism_vote value = 3 }
		}
	}
	
	option = {
		name = "EVTOPTANOMADB.631"
		custom_tooltip = {
			text = cp_fail_pass_nihilism
		}
		trigger = {
			NOT = { check_variable = { which = global_cp_nihilism_vote value = 3 } }
		}
	}
}

# Summon Council - Outcome on Trade
character_event = {
	id = NOMAD.632
	desc = {
		trigger = {
			check_variable = { which = global_cp_trade_vote value = 3 }
		}
		text = NOMADEVTDESC632A
	}
	desc = {
		trigger = {
			NOT = { check_variable = { which = global_cp_trade_vote value = 3 } }
		}
		text = NOMADEVTDESC632B
	}
	picture = GFX_evt_air_south
	is_triggered_only = yes
	
	option = {
		name = "EVTOPTANOMADA.632"
		custom_tooltip = {
			text = cp_pass_trade
		}
		trigger = {
			check_variable = { which = global_cp_trade_vote value = 3 }
		}
	}
	
	option = {
		name = "EVTOPTANOMADB.632"
		custom_tooltip = {
			text = cp_fail_pass_trade
		}
		trigger = {
			NOT = { check_variable = { which = global_cp_trade_vote value = 3 } }
		}
	}
}

# Summon Council - Outcome on Protection
character_event = {
	id = NOMAD.633
	desc = {
		trigger = {
			check_variable = { which = global_cp_protection_vote value = 3 }
		}
		text = NOMADEVTDESC633A
	}
	desc = {
		trigger = {
			NOT = { check_variable = { which = global_cp_protection_vote value = 3 } }
		}
		text = NOMADEVTDESC633B
	}
	picture = GFX_evt_air_south
	is_triggered_only = yes
	
	option = {
		name = "EVTOPTANOMADA.633"
		custom_tooltip = {
			text = cp_pass_protection
		}
		trigger = {
			check_variable = { which = global_cp_protection_vote value = 3 }
		}
	}
	
	option = {
		name = "EVTOPTANOMADB.633"
		custom_tooltip = {
			text = cp_fail_pass_protection
		}
		trigger = {
			NOT = { check_variable = { which = global_cp_protection_vote value = 3 } }
		}
	}
}