# Settlement decisions are possible vs _all_ settlements and are shown in the Settlement Diplomacy View, not the Intrigue View. The taker is in the FROM scope.
#
# filter = [capital/owned/vassal_owned/sub_realm_owned/realm_owned/dynasty_owned/all]
# ai_target_filter = [capital/owned/vassal_owned/sub_realm_owned/realm_owned/dynasty_owned/all] (which settlements for which the AI evaluates the decision.)
#	owned: all settlements owned by the AI
#	vassal_owned: all settlements owned by direct vassal rulers of the AI's employer
#	sub_realm_owned: all settlements below the AI's employer
#	realm_owned: all settlements in the same top realm as the AI
#	dynasty_owned: all settlements owned by members of the same dynasty
#	all: all settlements (Avoid if possible. VERY CPU-HEAVY!)
#	

settlement_decisions = {

	convert_tribal_to_castle = {
		only_playable = yes
		filter = owned
		ai_target_filter = owned
		is_high_prio = yes
		
		from_potential = {
			is_playable = yes
			OR = {
				government = feudal_government
				government = feudal_government_earth_kingdom
			}
			higher_tier_than = BARON
		}
		
		potential = {
			holding_type = tribal
			holder_scope = {
				character = FROM
			}
		}
		allow = {
			location = {
				religion = FROM
			}
			has_building = tb_hillfort_4
		}
		effect = {
			convert_to = CASTLE
			refill_holding_levy = yes
			
			hidden_tooltip = {
				if = {
					limit = {
						is_capital = yes
						dejure_liege_title = {
							location = {
								num_of_empty_holdings = 2
							}
							NOT = {
								any_direct_de_jure_vassal_title = {
									holding_type = city
								}
							}
						}
					}
					location = {
						build_holding = {
							type = city
						}
					}
				}
				
				if = {
					limit = {
						is_capital = yes
						dejure_liege_title = {
							location = {
								num_of_empty_holdings = 2
							}
							NOT = {
								any_direct_de_jure_vassal_title = {
									holding_type = temple
								}
							}
						}
					}
					location = {
						build_holding = {
							type = temple
						}
					}
				}
			}
		}
		
		revoke_allowed = {
			always = no
		}
		
		ai_will_do = {
			factor = 1
		}
	}

	convert_tribal_to_city = {
		only_playable = yes
		filter = owned
		ai_target_filter = owned
		is_high_prio = yes
		
		from_potential = {
			is_playable = yes
			OR = {
				government = feudal_government_city
				government = republic_government
				government = merchant_republic_government
			}
			higher_tier_than = BARON
		}
		
		potential = {
			holding_type = tribal
			holder_scope = {
				character = FROM
			}
		}
		allow = {
			location = {
				religion = FROM
			}
			has_building = tb_market_town_4
		}
		effect = {
			convert_to = CITY
			refill_holding_levy = yes
			
			hidden_tooltip = {
				if = {
					limit = {
						is_capital = yes
						dejure_liege_title = {
							location = {
								num_of_empty_holdings = 2
							}
							NOT = {
								any_direct_de_jure_vassal_title = {
									holding_type = castle
								}
							}
						}
					}
					location = {
						build_holding = {
							type = castle
						}
					}
				}
				
				if = {
					limit = {
						is_capital = yes
						dejure_liege_title = {
							location = {
								num_of_empty_holdings = 2
							}
							NOT = {
								any_direct_de_jure_vassal_title = {
									holding_type = temple
								}
							}
						}
					}
					location = {
						build_holding = {
							type = temple
						}
					}
				}
			}
		}
		revoke_allowed = {
			always = no
		}
		ai_will_do = {
			factor = 1 # On average ca 1 year before taken
		}
	}
	
	convert_tribal_to_temple = {
		only_playable = yes
		filter = owned
		ai_target_filter = owned
		is_high_prio = yes
		
		from_potential = {
			is_playable = yes
			higher_tier_than = BARON
			OR = {
				government = feudal_government_temple
				government = feudal_government_air_nomad
				government = theocracy_government
			}
		}
		
		potential = {
			holding_type = tribal
			holder_scope = {
				character = FROM
			}
		}
		allow = {
			location = {
				religion = FROM
			}
			has_building = tb_hillfort_4
		}
		effect = {
			convert_to = temple
			refill_holding_levy = yes
			
			hidden_tooltip = {
				if = {
					limit = {
						is_capital = yes
						dejure_liege_title = {
							location = {
								num_of_empty_holdings = 2
							}
							NOT = {
								any_direct_de_jure_vassal_title = {
									holding_type = castle
								}
							}
						}
					}
					location = {
						build_holding = {
							type = castle
						}
					}
				}
				
				if = {
					limit = {
						is_capital = yes
						dejure_liege_title = {
							location = {
								num_of_empty_holdings = 2
							}
							NOT = {
								any_direct_de_jure_vassal_title = {
									holding_type = city
								}
							}
						}
					}
					location = {
						build_holding = {
							type = city
						}
					}
				}
			}
		}
		revoke_allowed = {
			always = no
		}
		ai_will_do = {
			factor = 1 # On average ca 1 year before taken
		}
	}
	
	make_primary = {
		only_playable = yes
		filter = owned
		ai_target_filter = owned
		
		from_potential = {
			is_playable = yes
		}
		
		potential = {
			is_capital = no
			holder_scope = {
				character = FROM
			}
			dejure_liege_title = {
				holder_scope = {
					character = FROM
				}
			}
		}
		allow = {
			FROM = {
				OR = {
					AND = {
						is_merchant_republic = no
						is_nomadic = no
					}
#					capital_scope = {
#						ROOT = {
#							location = {
#								NOT = { province = PREVPREV }
#							}
#						}
#					}
				}
			}
		}
		effect = {
			make_capital_holding = yes
		}
		revoke_allowed = {
			always = no
		}
		ai_will_do = {
			factor = 1
			
			modifier = { # Not if this settlement is not allowed
				factor = 0
				NOT = { is_allowed_holding_type = FROM }
			}
			
			modifier = { # Not if existing capital is preferred
				factor = 0
				defacto_liege_title = {
					is_preferred_holding_type = FROM
				}
			}
			
			modifier = { # Not if this settlement is not preferred and another settlement is
				factor = 0
				NOT = { is_preferred_holding_type = FROM }
				defacto_liege_title = {
					any_direct_de_jure_vassal_title = {
						holder = FROM
						is_preferred_holding_type = FROM
					}
				}
			}
		}
	}
	# Debug decision to fix holdings with a dead owner
	fix_holding_with_dead_owner = {
		
		from_potential = {
			is_playable = yes
		}
		potential = {
			holder_scope = {
				is_alive = no
			}
		}
		allow = {
			holder_scope = {
				is_alive = no
			}
		}
		effect = {
			if = {
				limit = {
					location = {
						holder_scope = {
							is_alive = yes
						}
					}
				}
				location = {
					holder_scope = {
						ROOT = {
							grant_title = PREV
						}
					}
				}
				break = yes
			}
			grant_title = FROM
		}
		
		revoke_allowed = {
			always = no
		}
		
		ai_will_do = {
			factor = 1
		}
	}
}