song = {
	name = "Aang Memorial Island.ogg"
	song_name = "Memorial Island"
	
	chance = {
		modifier = {
			factor = 1
		}		
	}
}

song = {
	name = "Brother.ogg"
	song_name = "Brothers"
	
	chance = {
		modifier = {
			factor = 1
		}		
	}
}

song = {
	name = "Dai Li.ogg"
	song_name = "The Dai Li"
	
	chance = {
		modifier = {
			factor = 1
		}		
	}
}

song = {
	name = "Mellow Times.ogg"
	song_name = "Mellow Times"
	
	chance = {
		modifier = {
			factor = 1
		}		
	}
}

song = {
	name = "Republic City.ogg"
	song_name = "Republic City"
	
	chance = {
		modifier = {
			factor = 1
		}		
	}
}

song = {
	name = "Sleeping Not Waking.ogg"
	song_name = "Sleeping Not Waking"
	
	chance = {
		modifier = {
			factor = 1
		}		
	}
}

song = {
	name = "Tenzin.ogg"
	song_name = "Tenzin"
	
	chance = {
		modifier = {
			factor = 1
		}		
	}
}

song = {
	name = "The Spirit Oasis.ogg"
	song_name = "The Spirit Oasis"
	
	chance = {
		modifier = {
			factor = 1
		}
	}
}

song = {
	name = "Tsungi Horn.ogg"
	song_name = "The Blue Spirit"
	
	chance = {
		modifier = {
			factor = 1
		}
	}
}

song = {
	name = "crusaderkings2_maintitle.ogg"
	song_name = "Peace"
	
	chance = {
		modifier = {
			factor = 1
		}
	}
}

song = {
	name = "Mako and Bolin.ogg"
	song_name = "Mako and Bolin"
	
	chance = {
		modifier = {
			factor = 1
		}
	}
}

song = {
	name = "Republic City Park.ogg"
	song_name = "Republic City Park"
	
	chance = {
		modifier = {
			factor = 1
		}
	}
}

song = {
	name = "The Aftermath.ogg"
	song_name = "Aftermath"
	
	chance = {
		modifier = {
			factor = 1
		}
	}
}

song = {
	name = "In a Box.ogg"
	song_name = "In A Box"
	
	chance = {
		modifier = {
			factor = 1
		}	
	}
}

song = {
	name = "Korra Alone.ogg"
	song_name = "Korra Alone"
	
	chance = {
		modifier = {
			factor = 1
		}	
	}
}

song = {
	name = "Tonraq.ogg"
	song_name = "Tonraq"
	
	chance = {
		modifier = {
			factor = 1
		}	
	}
}